Thu. Feb. 16, 2017             LANDSAT 7                 Time: 01:30
                         Image Assessment System
                           GCP Residual Report
----------------------------------------------------------------------------
WOID: L25490748            Path/Row: 205 / 050

L0R Reference Image: L72AGS1999313230300_HDF.170470622
Acquisition Date: Nov 04, 1999

Band Number:  5

GLS date for each WRS-2 path/row used:
Path  Row   Date
205   050   11-04-1999


Point_ID         Latitude  Longitude    Height       Across    Along    Residual  Residual
                                                      Scan      Scan      In y      in x
                                                    Residual  Residual    dir       dir
                   (deg)     (deg)     (meters)     (meters)  (meters)  (meters)  (meters)

2050500001_01   14.115113  -16.128836    32.082      -1.296    -0.249    -1.234    -0.446
2050500004_01   14.325036  -16.383540    34.456       0.395     0.419     0.330     0.475
2050500005_01   14.734958  -16.444327    58.521       1.656    -1.085     1.805    -0.816
2050500006_01   14.491876  -16.325562    33.746       0.908    -0.692     1.008    -0.542
2050500007_01   14.100739  -16.388290    31.939       0.790     1.528     0.549     1.631
2050500008_01   14.167286  -16.164394    36.081      -0.465    -0.558    -0.366    -0.623
2050500009_01   14.494198  -17.088107    29.683      -1.009     0.703    -1.110     0.537
2050500010_01   15.102456  -16.973397    37.893       0.171     2.267    -0.186     2.265
2050500011_01   14.584164  -16.652440    38.857       1.926     0.531     1.820     0.822
2050500012_01   14.607682  -16.370532    48.718       1.538    -1.305     1.724    -1.050
2050500013_01   14.927390  -17.117881    40.710      -0.655     0.405    -0.716     0.298
2050500014_01   14.578523  -16.028683    62.323      -2.167    -1.955    -1.831    -2.265
2050500016_01   13.603437  -16.041517    34.484      -1.096     0.834    -1.201     0.655
2050500017_01   14.709887  -17.431570    37.440      -1.532    -0.392    -1.462    -0.625
2050500018_01   14.600551  -16.429244    42.708       1.821    -0.841     1.932    -0.549
2050500019_01   14.724347  -15.849068    53.872      -2.296     1.630    -2.510     1.255
2050500020_01   14.105233  -16.623650    31.392       0.784     1.267     0.580     1.373
2050500021_01   14.425562  -16.351047    32.917       1.268    -0.163     1.281     0.035
2050500022_01   14.894474  -17.159371    34.291      -0.587     1.347    -0.795     1.239
2050500023_01   14.779885  -16.458001    57.536       1.700    -1.143     1.858    -0.866
2050500024_01   14.146442  -16.410244    31.371       0.133     2.534    -0.256     2.523
2050500025_01   14.098679  -16.369106    33.597       0.785     1.690     0.520     1.791
2050500026_01   15.133661  -16.807904    54.424       0.848     0.070     0.824     0.200
2050500027_01   14.642681  -16.659561    38.462       1.767     0.772     1.626     1.035
2050500028_01   14.729931  -17.327358    32.530      -0.432    -0.993    -0.282    -1.049
2050500029_01   14.887550  -15.936155    76.297      -0.930     1.954    -1.212     1.787
2050500030_01   14.184786  -16.437719    31.695       0.661     1.059     0.493     1.149
2050500031_01   14.527446  -16.107792    56.869      -1.069    -2.161    -0.715    -2.299
2050500032_01   14.127264  -16.081374    31.506      -2.083    -0.540    -1.966    -0.855
2050500033_01   14.666912  -16.683418    39.652       0.639     0.857     0.498     0.945
2050500034_01   14.175045  -16.605248    32.109       0.683     1.239     0.486     1.329
2050500035_01   14.541222  -15.933844    63.572      -2.119    -0.635    -1.985    -0.954
2050500036_01   14.938288  -15.786303    83.915      -1.901     3.272    -2.373     2.938
2050500037_01   14.662922  -17.438846    68.886      -3.092     2.330    -3.425     1.822
2050500038_01   14.813796  -16.367081    64.671       1.234    -2.302     1.578    -2.083
2050500039_01   14.542128  -16.653519    35.085       0.646     0.653     0.537     0.744
2050500040_01   14.860984  -16.272025    68.182      -0.407    -2.954     0.059    -2.980
2050500041_01   14.219469  -16.529673    28.392       0.277     1.031     0.117     1.062
2050500042_01   14.827275  -15.884597    73.632      -2.004     2.180    -2.307     1.844
2050500043_01   14.922638  -16.096402    73.782      -0.365     0.080    -0.367     0.023
2050500044_01   14.135874  -16.813364    29.000      -0.398    -0.539    -0.310    -0.594
2050500045_01   14.426920  -16.569754    32.206       1.928     1.469     1.679     1.749
2050500046_01   14.158872  -16.272469    31.895      -0.644     1.469    -0.857     1.352
2050500047_01   14.753992  -16.435814    61.732       2.213    -1.231     2.378    -0.873
2050500048_01   14.196979  -16.527021    32.351       0.287     0.573     0.197     0.610
2050500049_01   14.083886  -16.347347    30.371       0.656     1.563     0.412     1.646
2050500050_01   14.132193  -16.341239    32.837       0.046     1.414    -0.168     1.404
2050500051_01   14.470099  -16.560039    32.165       0.895     0.928     0.742     1.055
2050500052_01   15.084479  -16.821719    52.761       0.895     0.319     0.831     0.452
2050500053_01   14.839383  -16.396234    70.855       0.630    -1.526     0.860    -1.410
2050500054_01   13.991112  -16.250989    40.292       0.129     0.873    -0.001     0.883
2050500055_01   14.267249  -16.433792    33.160       0.371     0.407     0.307     0.460
2050500056_01   14.643059  -16.200847    49.688       0.102    -2.741     0.530    -2.690
2050500057_01   14.393021  -16.570351    32.006       0.563     0.199     0.527     0.283
2050500058_01   14.176105  -16.835359    32.635      -1.113    -0.826    -0.972    -0.988
2050500059_01   14.179474  -16.050488    31.891      -1.942    -0.815    -1.784    -1.104
2050500060_01   14.715309  -17.243377    39.879      -1.951    -1.185    -1.751    -1.474
2050500061_01   13.797196  -16.703068    30.532       1.155    -0.574     1.231    -0.389
2050500062_01   14.348911  -16.556693    31.990       0.243     0.362     0.186     0.395
2050500063_01   14.015893  -16.758544    38.419       0.356    -3.248     0.854    -3.153
2050500064_01   15.068061  -17.000420    42.673       1.148     1.700     0.866     1.856
2050500065_01   14.607428  -16.660132    35.477       1.827     1.208     1.618     1.475
2050500066_01   14.813695  -17.299274    33.285      -1.877    -1.092    -1.693    -1.371
2050500067_01   14.800253  -16.728196    40.510       0.408     1.181     0.219     1.229
2050500068_01   14.789513  -17.385099    33.833      -2.030    -2.747    -1.590    -3.031
2050500069_01   14.201207  -16.365828    31.992       0.767    -0.313     0.811    -0.191
2050500070_01   13.988322  -16.413440    29.538       0.334     0.908     0.194     0.949
2050500071_01   14.234082  -16.876130    31.314       0.034    -0.200     0.063    -0.193
2050500072_01   14.928695  -15.814999    80.567      -1.918     3.260    -2.389     2.923
2050500073_01   14.180614  -16.314284    29.697       0.871     1.540     0.628     1.656
2050500074_01   14.134762  -16.366543    32.550       0.188     0.637     0.092     0.658
2050500075_01   14.146559  -16.010035    35.572      -2.264    -1.216    -2.039    -1.550
2050500076_01   14.047778  -16.492694    32.155       0.376     0.921     0.233     0.967
2050500077_01   14.654517  -16.383914    55.000       1.473    -1.383     1.672    -1.138
2050500078_01   14.737001  -17.404578    35.014      -2.679    -2.470    -2.274    -2.857
2050500079_01   14.253607  -15.964628    49.482      -2.256    -2.493    -1.833    -2.810
2050500080_01   14.582727  -16.324712    47.151       1.265    -1.730     1.520    -1.513
2050500081_01   14.090067  -16.494913    30.081       0.667     1.196     0.477     1.284
2050500082_01   14.596120  -16.306134    51.353       0.972    -1.788     1.241    -1.615
2050500083_01   14.250393  -16.485120    30.924       1.224     1.386     0.998     1.558
2050500084_01   14.245371  -16.746130    37.326       0.300    -0.011     0.298     0.035
2050500085_01   14.544098  -16.437232    37.997       1.352    -0.033     1.344     0.177
2050500086_01   14.326276  -16.403295    36.382       1.077     1.228     0.878     1.379
2050500087_01   13.574268  -16.076324    47.311      -1.212    -0.108    -1.171    -0.293
2050500088_01   14.132188  -16.292607    30.129       0.165     1.410    -0.049     1.418
2050500089_01   14.483708  -16.423762    38.678       1.464    -0.056     1.458     0.171
2050500090_01   13.659848  -16.643568    32.092      -0.288    -2.961     0.176    -2.969
2050500091_01   14.440614  -16.326928    32.687       1.625    -0.205     1.641     0.049
2050500092_01   14.943878  -16.875182   106.151       0.749     1.002     0.581     1.105
2050500093_01   14.752118  -17.134839    59.725      -1.297    -1.447    -1.063    -1.632
2050500094_01   13.882231  -16.375876    42.301      -0.135     0.691    -0.235     0.662
2050500095_01   13.681674  -16.194417    33.605      -0.680     1.437    -0.885     1.314
2050500096_01   14.425220  -16.214419    50.234      -0.596    -2.269    -0.232    -2.333
2050500097_01   14.376669  -16.946289    33.533      -1.536    -0.530    -1.438    -0.762
2050500098_01   14.474404  -16.994995    36.880      -1.683    -0.670    -1.563    -0.923
2050500099_01   14.668086  -17.192775    30.869      -2.834    -0.727    -2.694    -1.158
2050500100_01   13.654011  -16.075575    33.310      -0.486     0.367    -0.527     0.288
2050500101_01   14.253816  -16.412577    31.290       1.544     0.866     1.395     1.094
2050500102_01   13.844403  -16.137233    48.396      -0.938     0.154    -0.941     0.008
2050500103_01   14.386223  -16.531915    34.127       1.507     0.974     1.341     1.195
2050500104_01   14.377840  -16.144054    59.047      -0.657    -2.491    -0.257    -2.561
2050500105_01   14.490118  -16.684580    52.652       1.656     0.573     1.547     0.822
2050500106_01   14.313052  -16.437976    32.337       1.606     0.935     1.445     1.172
2050500107_01   15.133578  -16.948288    39.444       1.823     2.026     1.483     2.282
2050500108_01   14.184137  -16.264271    32.133      -0.382     0.876    -0.507     0.806
2050500109_01   14.766737  -17.016302    66.299      -0.211     0.279    -0.256     0.242
2050500110_01   14.744280  -17.485145    57.615      -1.360    -0.490    -1.278    -0.696
2050500111_01   15.044270  -17.023631    36.958       0.477     2.316     0.107     2.361
2050500112_01   14.715864  -16.418569    59.391       1.567    -1.277     1.748    -1.019
2050500113_01   14.175003  -16.080210    40.251      -1.854    -1.599    -1.576    -1.865
2050500114_01   14.909377  -17.131086    32.608      -1.933    -0.334    -1.865    -0.631
2050500115_01   14.351485  -16.405120    34.372       1.049     0.064     1.029     0.226
2050500116_01   14.765215  -17.478977    33.816      -0.869    -1.021    -0.711    -1.145
2050500117_01   14.238299  -16.553152    30.966      -0.707     1.325    -0.900     1.199
2050500118_01   13.694306  -16.680970    29.000      -1.217    -2.365    -0.835    -2.524
2050500119_01   14.263220  -16.381216    32.470      -0.018     0.416    -0.078     0.408
2050500120_01   14.776796  -16.884607    83.048      -0.461    -0.084    -0.446    -0.155
2050500122_01   13.867067  -16.419365    32.198       0.525     0.800     0.400     0.872
2050500123_01   14.153774  -16.096508    33.058      -1.800    -0.658    -1.668    -0.928
2050500124_01   14.134148  -16.598014    31.156       1.005     0.126     0.976     0.280
2050500125_01   14.781412  -16.916690   108.163       0.090     1.550    -0.154     1.544
2050500126_01   14.154430  -16.186841    31.475      -0.565    -0.112    -0.534    -0.197
2050500127_01   15.097467  -16.168752    73.402       0.693    -0.181     0.717    -0.071
2050500128_01   14.584576  -16.468958    51.648       1.961    -0.078     1.951     0.226
2050500129_01   14.160602  -16.655723    31.913       0.597    -0.638     0.689    -0.538
2050500130_01   14.760896  -16.370651    61.908       1.019    -1.891     1.301    -1.710
2050500131_01   14.238803  -16.517015    29.000      -0.022     0.275    -0.061     0.268
2050500132_01   14.826666  -16.345976    63.340       1.111    -2.143     1.432    -1.945
2050500133_01   14.058374  -16.398591    29.340       0.368     2.204     0.028     2.234
2050500134_01   14.199000  -16.550104    30.025      -0.386     2.277    -0.731     2.189
2050500135_01   14.450364  -16.591623    33.060       1.344     1.009     1.173     1.204
2050500136_01   13.991222  -16.380687    32.572       0.499     1.274     0.301     1.335
2050500137_01   14.484598  -16.581569    33.660       1.401     0.653     1.284     0.862
2050500138_01   14.566460  -17.131371    31.698      -2.222    -0.173    -2.174    -0.516
2050500139_01   14.165503  -16.442601    34.809       1.246     1.419     1.015     1.594
2050500140_01   14.437686  -16.162448    60.174      -0.898    -2.403    -0.509    -2.511
2050500141_01   14.457060  -16.295578    41.225       1.020    -1.306     1.214    -1.132
2050500142_01   14.171826  -16.232794    30.888       0.508     1.122     0.334     1.188
2050500143_01   14.112866  -16.657600    34.053       0.721     0.446     0.645     0.552
2050500144_01   14.184302  -16.862381    34.509      -0.682     0.324    -0.725     0.214
2050500145_01   14.086229  -16.627127    33.027       0.672     0.394     0.605     0.493
2050500146_01   14.056504  -16.439971    30.783       0.439     1.420     0.218     1.471
2050500147_01   14.374237  -16.581347    31.330       0.783     1.221     0.586     1.327
2050500148_01   14.703486  -16.446906    50.732       2.168    -0.852     2.275    -0.507
2050500149_01   13.855276  -16.296057    45.204      -0.034     1.413    -0.246     1.391
2050500150_01   14.849422  -16.302904    67.157       0.389    -1.838     0.672    -1.755
2050500151_01   14.760240  -17.411240    34.719      -1.961    -2.763    -1.520    -3.035
2050500152_01   14.623972  -16.220796    45.766       0.196    -2.335     0.560    -2.275
2050500153_01   14.468668  -17.062829    31.426      -2.154    -0.425    -2.066    -0.753
2050500154_01   14.340775  -16.926235    38.034      -1.364    -1.149    -1.172    -1.347
2050500155_01   14.748431  -17.347329    39.947      -1.313    -1.382    -1.092    -1.571
2050500156_01   14.649260  -16.760425    42.055       1.131     1.017     0.959     1.179
2050500157_01   13.893442  -16.407311    38.728       0.037     0.222     0.007     0.226
2050500158_01   14.291546  -16.659179    29.077       2.106     1.600     1.834     1.905
2050500159_01   14.257962  -16.352267    32.559       0.395     0.504     0.317     0.559
2050500160_01   14.189302  -16.154499    38.698      -0.952    -1.195    -0.749    -1.327
2050500161_01   14.588298  -17.144385    29.000      -2.289    -0.970    -2.117    -1.313
2050500162_01   13.699643  -16.180084    33.543      -0.639     0.935    -0.767     0.825
2050500163_01   14.161008  -16.512051    33.832       0.300     0.490     0.224     0.530
2050500164_01   14.388157  -16.347761    31.682       1.174    -0.038     1.170     0.144
2050500165_01   14.573242  -15.858791    62.904      -2.403     0.486    -2.438     0.109
2050500166_01   13.937052  -16.416182    33.269       0.278     0.615     0.185     0.651
2050500167_01   14.172205  -16.211672    33.992      -0.259     0.310    -0.297     0.266
2050500168_01   13.888797  -16.670983    33.180      -0.352    -1.780    -0.071    -1.813
2050500169_01   14.167178  -16.340888    33.176       0.565     0.591     0.472     0.672
2050500170_01   13.778093  -16.469601    50.298       0.624     0.706     0.512     0.794
2050500171_01   14.482422  -16.541757    34.513       2.143     0.912     1.978     1.232
2050500172_01   14.730532  -16.733495    62.293      -0.368     1.435    -0.587     1.360
2050500173_01   14.226728  -16.810195    46.470      -0.659    -0.012    -0.650    -0.114
2050500174_01   14.078561  -16.115598    31.522      -1.438    -0.129    -1.392    -0.349
2050500175_01   13.935942  -16.595530    33.534       0.578    -0.675     0.678    -0.577
2050500176_01   14.679110  -16.442289    51.832       2.091    -0.672     2.171    -0.341
2050500177_01   13.602628  -16.424151    69.306       0.028     0.188     0.004     0.191
2050500178_01   14.448296  -17.036213    32.796      -1.593     0.784    -1.699     0.527
2050500179_01   14.525995  -17.048332    30.611      -1.078    -0.214    -1.036    -0.379
2050500180_01   14.741906  -17.428026    35.099      -1.744    -1.199    -1.547    -1.456
2050500181_01   14.262117  -16.518005    29.000       1.055     2.098     0.720     2.235
2050500182_01   14.324103  -16.535386    31.137       1.321     0.220     1.273     0.421
2050500183_01   13.851545  -16.056492    54.125      -1.635    -1.295    -1.406    -1.530
2050500184_01   14.295985  -16.899441    33.775      -0.372    -0.987    -0.217    -1.033
2050500185_01   14.425987  -16.587554    32.957       1.351     0.133     1.315     0.340
2050500186_01   15.235354  -16.871039    32.595       1.207     0.781     1.068     0.957
2050500187_01   14.225856  -15.917799    55.017      -2.882    -1.973    -2.532    -2.393
2050500188_01   14.843052  -16.502468    66.273       1.656    -1.443     1.860    -1.169
2050500189_01   14.798208  -17.191849    52.530      -1.288    -0.107    -1.263    -0.307
2050500190_01   14.186320  -16.661746    36.799       1.169     1.491     0.926     1.653
2050500191_01   14.830116  -15.773365    69.736      -2.525     3.422    -3.012     2.989
2050500192_01   14.158909  -16.039553    40.251      -2.694    -1.657    -2.396    -2.052
2050500193_01   14.787227  -17.262222    44.891      -1.249    -0.893    -1.104    -1.077
2050500194_01   15.161102  -16.659351    82.251       0.662    -0.459     0.724    -0.352
2050500195_01   14.218982  -16.433209    30.370       0.550     0.371     0.490     0.451
2050500196_01   14.716328  -16.191773    38.634      -0.630    -1.979    -0.311    -2.051
2050500197_01   14.278694  -16.635452    30.891       1.013     1.615     0.752     1.752
2050500198_01   13.654320  -16.618297    29.000       0.698    -2.122     1.020    -1.988
2050500199_01   14.643529  -16.265749    43.712       0.334    -1.901     0.628    -1.826
2050500200_01   14.552655  -16.051952    63.866      -1.675    -1.871    -1.357    -2.106
2050500201_01   14.904768  -16.674378    58.910       0.783     0.498     0.696     0.612
2050500202_01   14.563784  -16.658691    36.540       1.551     0.752     1.416     0.982
2050500203_01   14.382778  -15.876700    62.722      -2.430    -0.947    -2.244    -1.310
2050500204_01   14.822007  -16.988946   119.909      -0.887    -2.063    -0.561    -2.176
2050500205_01   14.094190  -16.015640    33.022      -1.770    -1.193    -1.555    -1.451
2050500206_01   14.261335  -16.713449    40.697       1.657     1.452     1.412     1.690
2050500207_01   14.101890  -16.054300    33.364      -1.308    -0.744    -1.168    -0.936
2050500208_01   14.892823  -15.756855    82.486      -2.603     2.761    -2.987     2.325
2050500209_01   13.748209  -16.478569    40.577       0.195    -0.483     0.272    -0.447
2050500210_01   14.409705  -16.506757    34.179       1.836     1.066     1.651     1.336
2050500211_01   14.484571  -15.853716    66.362      -2.177    -0.201    -2.109    -0.534
2050500212_01   13.831544  -16.715805    33.961       0.666    -1.880     0.950    -1.754
2050500213_01   13.832638  -16.752719    29.657      -0.759    -3.208    -0.253    -3.287
2050500214_01   14.200361  -16.506752    30.548       0.248     0.826     0.120     0.855
2050500215_01   14.615134  -16.719221    52.277       1.163     0.440     1.080     0.615
2050500216_01   14.436497  -16.713112    34.831       0.470     0.543     0.380     0.608
2050500217_01   14.530964  -17.099584    30.998      -1.416    -2.186    -1.066    -2.380
2050500218_01   14.065902  -16.625595    31.369       1.289     0.170     1.249     0.367
2050500219_01   14.318237  -16.602367    35.806       0.322     0.278     0.277     0.325
2050500220_01   15.177972  -16.226714    70.187       0.467    -1.084     0.633    -0.998
2050500221_01   14.286528  -16.929109    32.218       0.301     0.101     0.280     0.146
2050500222_01   14.219479  -16.395128    31.249       0.563     1.157     0.381     1.230
2050500223_01   14.640635  -16.143733    54.362      -1.003    -2.790    -0.554    -2.910
2050500224_01   14.069442  -16.663120    30.000       0.359     1.296     0.156     1.336
2050500225_01   14.331413  -16.658082    41.878       2.312     1.515     2.051     1.853
2050500226_01   14.969643  -17.092363    37.492       1.357     1.952     1.033     2.137
2050500227_01   14.250337  -16.259078    41.892       0.246    -0.099     0.264    -0.059
2050500228_01   14.348898  -16.383965    33.125       0.271    -0.358     0.327    -0.312
2050500229_01   14.684810  -16.351232    61.151       0.924    -1.808     1.195    -1.643
2050500230_01   13.970804  -16.529683    33.930       0.440    -0.293     0.483    -0.221
2050500231_01   14.129330  -16.629100    33.882       0.732     1.107     0.554     1.207
2050500232_01   14.510154  -16.400271    39.244       1.724    -0.510     1.785    -0.237
2050500233_01   14.283902  -16.503692    31.591       1.133     0.596     1.029     0.764
2050500234_01   14.133488  -16.655527    35.521       0.437     2.225     0.089     2.265
2050500235_01   14.503800  -16.174205    45.514      -0.597    -1.968    -0.280    -2.035
2050500236_01   14.836420  -17.220935    25.299       0.136    -0.889     0.265    -0.859
2050500237_01   14.416202  -16.984740    31.439      -1.261     0.297    -1.295     0.097
2050500238_01   14.903979  -17.069426    30.638      -0.552     1.293    -0.751     1.191
2050500239_01   14.127203  -16.453196    33.148       1.369     1.077     1.189     1.276
2050500240_01   14.208097  -16.137358    40.470      -1.408    -1.626    -1.132    -1.822
2050500241_01   14.492650  -16.920027    49.103      -0.613     0.207    -0.641     0.109
2050500242_01   14.205365  -16.197114    37.975      -0.512    -0.445    -0.430    -0.518
2050500243_01   14.675339  -17.469330    35.080      -1.951    -1.063    -1.773    -1.354
2050500244_01   13.856735  -16.719597    36.469      -0.587    -2.416    -0.205    -2.478
2050500245_01   14.780965  -17.122584    76.931      -0.674    -0.757    -0.555    -0.854
2050500246_01   14.287827  -16.346328    36.159       0.943     0.605     0.842     0.744
2050500247_01   13.902809  -16.603353    33.015       0.720    -0.633     0.812    -0.514
2050500248_01   14.905602  -15.898303    75.026      -1.354     2.664    -1.741     2.422
2050500249_01   15.004347  -16.806813    83.570       1.101     1.029     0.926     1.186
2050500250_01   15.076065  -16.921257    59.094       0.641     1.224     0.440     1.307
2050500251_01   14.172589  -16.293947    32.970       0.282     0.726     0.172     0.762
2050500252_01   14.488483  -16.608314    33.786       1.311     0.442     1.228     0.639
2050500253_01   14.468405  -16.398060    38.926       1.773    -0.402     1.816    -0.123
2050500254_01   14.227225  -16.628132    32.265       0.285     0.284     0.239     0.324
