GROUP = FILE_HEADER
  LANDSAT_SCENE_ID = "LE72050501999308AGS00"
  SPACECRAFT_ID = "L7_ETM"
  WRS_PATH = 205
  WRS_ROW = 50
  MODE = "SLC_ON"
  FIRST_SCAN_DIRECTION = "F"
  NUMBER_OF_BANDS = 9
  BAND_LIST = (1, 2, 3, 4, 5, 61, 62, 7, 8)
END_GROUP = FILE_HEADER
GROUP = PROJECTION
  ELLIPSOID_AXES = (6378137.000000, 6356752.314200)
  MAP_PROJECTION = "UTM"
  PROJECTION_UNITS = "METERS"
  DATUM = "WGS84"
  ELLIPSOID = "WGS84"
  UTM_ZONE = 28
  PROJECTION_PARAMETERS = (0.000000, 0.000000, 0.000000, 0.000000, 0.000000, 
                           0.000000, 0.000000, 0.000000, 0.000000, 0.000000, 
                           0.000000, 0.000000, 0.000000, 0.000000, 0.000000)
  UL_CORNER = ( 199800.000,  1705200.000)
  UR_CORNER = ( 435000.000,  1705200.000)
  LL_CORNER = ( 199800.000,  1494600.000)
  LR_CORNER = ( 435000.000,  1494600.000)
END_GROUP = PROJECTION
GROUP = EPHEMERIS
  EPHEMERIS_EPOCH_YEAR = 1999
  EPHEMERIS_EPOCH_DAY = 308
  EPHEMERIS_EPOCH_SECONDS = 40807.000000
  NUMBER_OF_POINTS = 28
  EPHEMERIS_TIME = (40807.000000, 40808.000000, 40809.000000, 40810.000000, 40811.000000, 
                    40812.000000, 40813.000000, 40814.000000, 40815.000000, 40816.000000, 
                    40817.000000, 40818.000000, 40819.000000, 40820.000000, 40821.000000, 
                    40822.000000, 40823.000000, 40824.000000, 40825.000000, 40826.000000, 
                    40827.000000, 40828.000000, 40829.000000, 40830.000000, 40831.000000, 
                    40832.000000, 40833.000000, 40834.000000)
  EPHEMERIS_ECEF_X = ( 6552192.110533,  6553603.368055,  6555006.993072,  6556402.984290,  6557791.340416, 
                       6559172.060156,  6560545.142217,  6561910.585304,  6563268.388125,  6564618.549385, 
                       6565961.067791,  6567295.942050,  6568623.170867,  6569942.752948,  6571254.687001, 
                       6572558.971732,  6573855.605846,  6575144.588051,  6576425.917052,  6577699.591557, 
                       6578965.610270,  6580223.971899,  6581474.675150,  6582717.718730,  6583953.101344, 
                       6585180.821699,  6586400.878501,  6587613.270457)
  EPHEMERIS_ECEF_Y = (-1942515.884520, -1944611.611564, -1946705.369355, -1948797.154438, -1950886.963359, 
                      -1952974.792661, -1955060.638889, -1957144.498588, -1959226.368302, -1961306.244576, 
                      -1963384.123954, -1965460.002981, -1967533.878202, -1969605.746161, -1971675.603402, 
                      -1973743.446471, -1975809.271912, -1977873.076269, -1979934.856087, -1981994.607910, 
                      -1984052.328284, -1986108.013753, -1988161.660860, -1990213.266152, -1992262.826172, 
                      -1994310.337465, -1996355.796575, -1998399.200048)
  EPHEMERIS_ECEF_Z = ( 1854441.307465,  1847279.417316,  1840115.448423,  1832949.408851,  1825781.306668, 
                       1818611.149939,  1811438.946729,  1804264.705106,  1797088.433136,  1789910.138883, 
                       1782729.830416,  1775547.515798,  1768363.203098,  1761176.900380,  1753988.615711, 
                       1746798.357157,  1739606.132784,  1732411.950658,  1725215.818845,  1718017.745411, 
                       1710817.738423,  1703615.805946,  1696411.956046,  1689206.196791,  1681998.536244, 
                       1674788.982474,  1667577.543545,  1660364.227525)
END_GROUP = EPHEMERIS
GROUP = SOLAR_VECTOR
  SOLAR_EPOCH_YEAR = 1999
  SOLAR_EPOCH_DAY = 308
  SOLAR_EPOCH_SECONDS = 40807.000000
  EARTH_SUN_DISTANCE = 0.99177558
  NUMBER_OF_POINTS = 28
  SAMPLE_TIME = (40807.000000, 40808.000000, 40809.000000, 40810.000000, 40811.000000, 
                 40812.000000, 40813.000000, 40814.000000, 40815.000000, 40816.000000, 
                 40817.000000, 40818.000000, 40819.000000, 40820.000000, 40821.000000, 
                 40822.000000, 40823.000000, 40824.000000, 40825.000000, 40826.000000, 
                 40827.000000, 40828.000000, 40829.000000, 40830.000000, 40831.000000, 
                 40832.000000, 40833.000000, 40834.000000)
  SOLAR_ECEF_X = ( 9.59478625e-01,  9.59485768e-01,  9.59492906e-01,  9.59500040e-01,  9.59507168e-01, 
                   9.59514291e-01,  9.59521408e-01,  9.59528521e-01,  9.59535629e-01,  9.59542731e-01, 
                   9.59549829e-01,  9.59556922e-01,  9.59564009e-01,  9.59571091e-01,  9.59578168e-01, 
                   9.59585240e-01,  9.59592308e-01,  9.59599370e-01,  9.59606427e-01,  9.59613479e-01, 
                   9.59620525e-01,  9.59627567e-01,  9.59634604e-01,  9.59641635e-01,  9.59648662e-01, 
                   9.59655683e-01,  9.59662700e-01,  9.59669711e-01)
  SOLAR_ECEF_Y = ( 9.84878944e-02,  9.84181181e-02,  9.83483413e-02,  9.82785612e-02,  9.82087834e-02, 
                   9.81390050e-02,  9.80692261e-02,  9.79994468e-02,  9.79296669e-02,  9.78598864e-02, 
                   9.77901055e-02,  9.77203213e-02,  9.76505393e-02,  9.75807568e-02,  9.75109738e-02, 
                   9.74411903e-02,  9.73714063e-02,  9.73016218e-02,  9.72318339e-02,  9.71620484e-02, 
                   9.70922623e-02,  9.70224757e-02,  9.69526887e-02,  9.68829011e-02,  9.68131130e-02, 
                   9.67433215e-02,  9.66735324e-02,  9.66037428e-02)
  SOLAR_ECEF_Z = (-2.64009285e-01, -2.64009346e-01, -2.64009406e-01, -2.64009466e-01, -2.64009527e-01, 
                  -2.64009587e-01, -2.64009647e-01, -2.64009708e-01, -2.64009768e-01, -2.64009828e-01, 
                  -2.64009889e-01, -2.64009949e-01, -2.64010009e-01, -2.64010070e-01, -2.64010130e-01, 
                  -2.64010190e-01, -2.64010251e-01, -2.64010311e-01, -2.64010372e-01, -2.64010432e-01, 
                  -2.64010492e-01, -2.64010553e-01, -2.64010613e-01, -2.64010673e-01, -2.64010734e-01, 
                  -2.64010794e-01, -2.64010854e-01, -2.64010915e-01)
END_GROUP = SOLAR_VECTOR
GROUP = SCAN_TIME_POLY
  SCAN_TIME_POLY_NCOEFF = 4
  SCAN_TIME_POLY_NUMBER_DIRECTIONS = 2
  SCAN_TIME00_MEAN_ACTIVESCAN = 6.074645570e-02
  SCAN_TIME00_MEAN_EOL = 6.321000000e+03
  SCAN_TIME00_POLY_COEFF = (4.080700814e+04, 4.492895239e-03, 1.989870128e-12, -1.885180698e-16)
  SCAN_TIME01_MEAN_ACTIVESCAN = 6.074645570e-02
  SCAN_TIME01_MEAN_EOL = 6.321000000e+03
  SCAN_TIME01_POLY_COEFF = (4.080700813e+04, 4.492903359e-03, -5.836687739e-13, 6.348922961e-17)
END_GROUP = SCAN_TIME_POLY
GROUP = RPC_BAND01
  BAND01_LINES_PER_SCAN = 16
  BAND01_NUMBER_OF_DIRECTIONS = 2
  BAND01_NUM_L1T_LINES = 7021
  BAND01_NUM_L1T_SAMPS = 7841
  BAND01_NUM_L1R_LINES = 5999
  BAND01_NUM_L1R_SAMPS = 6599
  BAND01_PIXEL_SIZE = 30.000
  BAND01_START_TIME = 40807.044066
  BAND01_LINE_TIME = 0.071695
  BAND01_MEAN_HEIGHT = 4000.000
  BAND01_MEAN_L1R_LINE_SAMP = (2999.500, 3299.015)
  BAND01_MEAN_L1T_LINE_SAMP = (3512.814, 3936.348)
  BAND01_MEAN_SAT_VECTOR = (-0.000927117, -0.001782230,  0.995836801)
  BAND01_SAT_X_NUM_COEF = (-2.499282e-05, -5.169451e-07, -4.755104e-05, -1.301871e-09, -1.013228e-05, 
                           -5.323074e-13,  2.688073e-12,  5.915773e-12, -2.073447e-15,  6.182823e-17)
  BAND01_SAT_X_DEN_COEF = ( 9.891684e-07, -1.257757e-07, -1.417556e-06, -1.009594e-06,  9.107508e-11, 
                            4.186507e-10,  9.781349e-10,  6.559164e-17, -8.661878e-18)
  BAND01_SAT_Y_NUM_COEF = (-2.169845e-04,  4.730295e-05, -4.097246e-07, -2.530997e-09, -4.734125e-05, 
                            1.673769e-12,  2.196751e-11,  5.476932e-11, -2.054056e-15, -2.307505e-17)
  BAND01_SAT_Y_DEN_COEF = ( 2.722240e-06, -7.485554e-07, -1.393456e-06, -2.396017e-06, -2.323089e-10, 
                            6.777517e-10,  9.531790e-10,  2.961219e-15, -4.106914e-16)
  BAND01_SAT_Z_NUM_COEF = ( 4.160740e-03,  1.071514e-07, -4.852847e-08, -1.188100e-08, -1.177732e-07, 
                           -5.404750e-11, -4.822735e-10, -1.075692e-09, -3.231061e-17, -3.549064e-19)
  BAND01_SAT_Z_DEN_COEF = ( 5.722065e-06, -9.861210e-07, -2.853117e-06, -5.908000e-06,  7.258338e-11, 
                            6.312737e-10,  1.419696e-09,  9.688575e-18, -6.683280e-17)
  BAND01_MEAN_SUN_VECTOR = ( 0.368995478, -0.478200590,  0.796884677)
  BAND01_SUN_X_NUM_COEF = ( 1.689951e-05, -3.345806e-08, -4.328073e-06,  8.904652e-14, -2.896423e-07, 
                           -8.661816e-13, -1.128333e-11, -2.656423e-12, -2.338698e-18,  3.730599e-18)
  BAND01_SUN_X_DEN_COEF = ( 3.863722e-06, -4.711636e-07, -2.232072e-10, -1.224914e-07, -7.363276e-12, 
                           -1.556263e-12,  8.533148e-12, -2.331845e-17, -2.851252e-17)
  BAND01_SUN_Y_NUM_COEF = (-3.562875e-05,  3.767379e-06, -4.754089e-07,  7.182833e-15, -2.984212e-08, 
                            1.072374e-11,  9.391578e-12,  4.704209e-12, -1.290010e-17, -5.106553e-17)
  BAND01_SUN_Y_DEN_COEF = ( 1.380785e-06,  1.065342e-07, -2.789954e-13, -1.330801e-07, -1.111662e-11, 
                            2.573917e-12,  2.223203e-11,  2.016458e-17,  2.396910e-17)
  BAND01_SUN_Z_NUM_COEF = ( 5.947720e-05,  2.276611e-06,  1.718680e-06, -5.773135e-14,  1.158387e-07, 
                           -1.093713e-11, -3.310570e-12, -9.102932e-12,  2.434613e-17,  1.454724e-17)
  BAND01_SUN_Z_DEN_COEF = (-1.179025e-06, -3.113125e-07, -7.490844e-11,  3.490812e-07,  8.677301e-12, 
                           -1.278937e-12,  6.583420e-12,  6.229269e-18,  1.404261e-17)
  BAND01_DIR00_MEAN_HEIGHT = 4000.000
  BAND01_DIR00_MEAN_L1R_LINE_SAMP = (2999.500, 3299.015)
  BAND01_DIR00_MEAN_L1T_LINE_SAMP = (3512.842, 3936.460)
  BAND01_DIR00_LINE_NUM_COEF = ( 4.804946e-02,  9.668324e-01, -1.507300e-01, -6.983107e-05, -1.921386e-08)
  BAND01_DIR00_LINE_DEN_COEF = (-2.305591e-09, -8.458130e-08, -8.224649e-10,  1.945271e-12)
  BAND01_DIR00_SAMP_NUM_COEF = (-5.858717e-01,  2.201011e-01,  9.810114e-01,  1.728150e-05, -2.755015e-07)
  BAND01_DIR00_SAMP_DEN_COEF = (-2.844492e-07, -1.705201e-07, -1.585126e-06,  1.047861e-10)
  BAND01_DIR01_MEAN_HEIGHT = 4000.000
  BAND01_DIR01_MEAN_L1R_LINE_SAMP = (2999.500, 3299.015)
  BAND01_DIR01_MEAN_L1T_LINE_SAMP = (3512.785, 3936.235)
  BAND01_DIR01_LINE_NUM_COEF = ( 2.649441e-02,  9.668324e-01, -1.507300e-01, -6.983107e-05, -1.921390e-08)
  BAND01_DIR01_LINE_DEN_COEF = (-2.306030e-09, -8.458145e-08, -8.224648e-10,  1.945271e-12)
  BAND01_DIR01_SAMP_NUM_COEF = (-8.196015e-01,  2.201011e-01,  9.810113e-01,  1.728150e-05, -2.755040e-07)
  BAND01_DIR01_SAMP_DEN_COEF = (-2.844753e-07, -1.705264e-07, -1.585126e-06,  1.047861e-10)
END_GROUP = RPC_BAND01
GROUP = RPC_BAND02
  BAND02_LINES_PER_SCAN = 16
  BAND02_NUMBER_OF_DIRECTIONS = 2
  BAND02_NUM_L1T_LINES = 7021
  BAND02_NUM_L1T_SAMPS = 7841
  BAND02_NUM_L1R_LINES = 5999
  BAND02_NUM_L1R_SAMPS = 6599
  BAND02_PIXEL_SIZE = 30.000
  BAND02_START_TIME =   0.000000
  BAND02_LINE_TIME = 0.000000
  BAND02_MEAN_HEIGHT = 4000.000
  BAND02_MEAN_L1R_LINE_SAMP = (2999.500, 3299.015)
  BAND02_MEAN_L1T_LINE_SAMP = (3512.802, 3936.377)
  BAND02_MEAN_SAT_VECTOR = (-0.000928469, -0.001782801,  0.995836741)
  BAND02_SAT_X_NUM_COEF = (-2.501273e-05, -5.183081e-07, -4.755082e-05, -1.303730e-09, -1.013087e-05, 
                           -5.320031e-13,  2.687109e-12,  5.905182e-12, -2.124475e-15,  6.182525e-17)
  BAND02_SAT_X_DEN_COEF = ( 1.049676e-06, -1.348946e-07, -1.417560e-06, -1.072191e-06,  9.209888e-11, 
                            4.183360e-10,  9.781599e-10,  6.579730e-17, -8.896029e-18)
  BAND02_SAT_Y_NUM_COEF = (-2.169883e-04,  4.730260e-05, -4.096671e-07, -2.531630e-09, -4.734089e-05, 
                            1.674040e-12,  2.197781e-11,  5.479842e-11, -2.035903e-15, -2.301435e-17)
  BAND02_SAT_Y_DEN_COEF = ( 2.732931e-06, -7.458276e-07, -1.393456e-06, -2.406521e-06, -2.298173e-10, 
                            6.769727e-10,  9.532022e-10,  2.938705e-15, -4.071599e-16)
  BAND02_SAT_Z_NUM_COEF = ( 4.160798e-03,  1.041736e-07, -4.812525e-08, -1.188095e-08, -1.147069e-07, 
                           -5.404751e-11, -4.822737e-10, -1.075692e-09, -3.230405e-17, -3.475925e-19)
  BAND02_SAT_Z_DEN_COEF = ( 4.678131e-06, -8.234026e-07, -2.853042e-06, -4.828278e-06,  7.258056e-11, 
                            6.312051e-10,  1.419707e-09,  1.226714e-17, -6.424824e-17)
  BAND02_MEAN_SUN_VECTOR = ( 0.368995353, -0.478200648,  0.796884699)
  BAND02_SUN_X_NUM_COEF = ( 1.689973e-05, -3.346547e-08, -4.328072e-06,  8.968248e-14, -2.896349e-07, 
                           -8.604756e-13, -1.120039e-11, -2.588867e-12, -2.339618e-18,  3.731676e-18)
  BAND02_SUN_X_DEN_COEF = ( 3.844199e-06, -4.867264e-07, -2.231868e-10, -1.211276e-07, -7.383807e-12, 
                           -1.555188e-12,  8.550094e-12, -2.302821e-17, -2.837510e-17)
  BAND02_SUN_Y_NUM_COEF = (-3.562905e-05,  3.767368e-06, -4.754069e-07,  8.018469e-15, -2.982973e-08, 
                            1.072291e-11,  9.391563e-12,  4.704226e-12, -1.290424e-17, -5.111819e-17)
  BAND02_SUN_Y_DEN_COEF = ( 1.380084e-06,  1.065783e-07, -2.423038e-13, -1.325843e-07, -1.112923e-11, 
                            2.577887e-12,  2.223224e-11,  2.019643e-17,  2.397313e-17)
  BAND02_SUN_Z_NUM_COEF = ( 5.947765e-05,  2.276586e-06,  1.718684e-06, -5.594643e-14,  1.158645e-07, 
                           -1.094207e-11, -3.317797e-12, -9.105574e-12,  2.436718e-17,  1.456687e-17)
  BAND02_SUN_Z_DEN_COEF = (-1.181018e-06, -3.128764e-07, -7.488660e-11,  3.490031e-07,  8.678762e-12, 
                           -1.282696e-12,  6.576140e-12,  6.192127e-18,  1.405009e-17)
  BAND02_DIR00_MEAN_HEIGHT = 4000.000
  BAND02_DIR00_MEAN_L1R_LINE_SAMP = (2999.500, 3299.015)
  BAND02_DIR00_MEAN_L1T_LINE_SAMP = (3512.829, 3936.493)
  BAND02_DIR00_LINE_NUM_COEF = ( 4.462761e-02,  9.668326e-01, -1.507290e-01, -6.976329e-05, -1.316266e-08)
  BAND02_DIR00_LINE_DEN_COEF = (-2.351671e-09, -7.873806e-08, -8.225553e-10,  1.945391e-12)
  BAND02_DIR00_SAMP_NUM_COEF = (-5.669890e-01,  2.200997e-01,  9.810043e-01,  1.729773e-05, -2.755606e-07)
  BAND02_DIR00_SAMP_DEN_COEF = (-2.838016e-07, -1.673769e-07, -1.585126e-06,  1.048398e-10)
  BAND02_DIR01_MEAN_HEIGHT = 4000.000
  BAND02_DIR01_MEAN_L1R_LINE_SAMP = (2999.500, 3299.015)
  BAND02_DIR01_MEAN_L1T_LINE_SAMP = (3512.774, 3936.260)
  BAND02_DIR01_LINE_NUM_COEF = ( 2.648048e-02,  9.668326e-01, -1.507290e-01, -6.976329e-05, -1.316269e-08)
  BAND02_DIR01_LINE_DEN_COEF = (-2.352125e-09, -7.873821e-08, -8.225553e-10,  1.945391e-12)
  BAND02_DIR01_SAMP_NUM_COEF = (-8.076596e-01,  2.200997e-01,  9.810043e-01,  1.729773e-05, -2.755630e-07)
  BAND02_DIR01_SAMP_DEN_COEF = (-2.838284e-07, -1.673831e-07, -1.585126e-06,  1.048398e-10)
END_GROUP = RPC_BAND02
GROUP = RPC_BAND03
  BAND03_LINES_PER_SCAN = 16
  BAND03_NUMBER_OF_DIRECTIONS = 2
  BAND03_NUM_L1T_LINES = 7021
  BAND03_NUM_L1T_SAMPS = 7841
  BAND03_NUM_L1R_LINES = 5999
  BAND03_NUM_L1R_SAMPS = 6599
  BAND03_PIXEL_SIZE = 30.000
  BAND03_START_TIME =   0.000000
  BAND03_LINE_TIME = 0.000000
  BAND03_MEAN_HEIGHT = 4000.000
  BAND03_MEAN_L1R_LINE_SAMP = (2999.500, 3299.015)
  BAND03_MEAN_L1T_LINE_SAMP = (3512.791, 3936.408)
  BAND03_MEAN_SAT_VECTOR = (-0.000929942, -0.001783304,  0.995836683)
  BAND03_SAT_X_NUM_COEF = (-2.503402e-05, -5.195896e-07, -4.755062e-05, -1.305768e-09, -1.012954e-05, 
                           -5.317889e-13,  2.685636e-12,  5.894238e-12, -2.169980e-15,  6.182345e-17)
  BAND03_SAT_X_DEN_COEF = ( 1.110746e-06, -1.440834e-07, -1.417563e-06, -1.135356e-06,  9.301189e-11, 
                            4.180559e-10,  9.781822e-10,  6.594209e-17, -9.122585e-18)
  BAND03_SAT_Y_NUM_COEF = (-2.169916e-04,  4.730265e-05, -4.096727e-07, -2.532195e-09, -4.734094e-05, 
                            1.674104e-12,  2.198785e-11,  5.482762e-11, -2.013443e-15, -2.294025e-17)
  BAND03_SAT_Y_DEN_COEF = ( 2.745700e-06, -7.433992e-07, -1.393455e-06, -2.419223e-06, -2.267341e-10, 
                            6.760111e-10,  9.532415e-10,  2.910931e-15, -4.028216e-16)
  BAND03_SAT_Z_NUM_COEF = ( 4.160853e-03,  1.011671e-07, -4.772380e-08, -1.188090e-08, -1.116124e-07, 
                           -5.404753e-11, -4.822740e-10, -1.075692e-09, -3.229744e-17, -3.402129e-19)
  BAND03_SAT_Z_DEN_COEF = ( 3.622092e-06, -6.587915e-07, -2.852966e-06, -3.736034e-06,  7.257765e-11, 
                            6.311353e-10,  1.419716e-09,  1.488056e-17, -6.163551e-17)
  BAND03_MEAN_SUN_VECTOR = ( 0.368995217, -0.478200702,  0.796884729)
  BAND03_SUN_X_NUM_COEF = ( 1.689993e-05, -3.347018e-08, -4.328072e-06,  9.009628e-14, -2.896299e-07, 
                           -8.592393e-13, -1.118051e-11, -2.548272e-12, -2.332082e-18,  3.730705e-18)
  BAND03_SUN_X_DEN_COEF = ( 3.839774e-06, -4.961267e-07, -2.232046e-10, -1.206329e-07, -7.389917e-12, 
                           -1.561504e-12,  8.560226e-12, -2.292168e-17, -2.836962e-17)
  BAND03_SUN_Y_NUM_COEF = (-3.562933e-05,  3.767364e-06, -4.754060e-07,  8.207277e-15, -2.982546e-08, 
                            1.071715e-11,  9.392821e-12,  4.704160e-12, -1.291302e-17, -5.129093e-17)
  BAND03_SUN_Y_DEN_COEF = ( 1.378770e-06,  1.066870e-07, -2.579679e-13, -1.328185e-07, -1.116900e-11, 
                            2.594079e-12,  2.223344e-11,  2.028988e-17,  2.401270e-17)
  BAND03_SUN_Z_NUM_COEF = ( 5.947809e-05,  2.276574e-06,  1.718685e-06, -5.505488e-14,  1.158775e-07, 
                           -1.094447e-11, -3.321818e-12, -9.107219e-12,  2.437929e-17,  1.457424e-17)
  BAND03_SUN_Z_DEN_COEF = (-1.181569e-06, -3.139133e-07, -7.490306e-11,  3.485332e-07,  8.678798e-12, 
                           -1.283787e-12,  6.571715e-12,  6.158831e-18,  1.406195e-17)
  BAND03_DIR00_MEAN_HEIGHT = 4000.000
  BAND03_DIR00_MEAN_L1R_LINE_SAMP = (2999.500, 3299.015)
  BAND03_DIR00_MEAN_L1T_LINE_SAMP = (3512.818, 3936.528)
  BAND03_DIR00_LINE_NUM_COEF = ( 4.122334e-02,  9.668329e-01, -1.507280e-01, -6.969396e-05, -7.142687e-09)
  BAND03_DIR00_LINE_DEN_COEF = (-2.397556e-09, -7.292514e-08, -8.226451e-10,  1.945623e-12)
  BAND03_DIR00_SAMP_NUM_COEF = (-5.481389e-01,  2.200983e-01,  9.809976e-01,  1.731849e-05, -2.756245e-07)
  BAND03_DIR00_SAMP_DEN_COEF = (-2.831607e-07, -1.642441e-07, -1.585126e-06,  1.048775e-10)
  BAND03_DIR01_MEAN_HEIGHT = 4000.000
  BAND03_DIR01_MEAN_L1R_LINE_SAMP = (2999.500, 3299.015)
  BAND03_DIR01_MEAN_L1T_LINE_SAMP = (3512.765, 3936.288)
  BAND03_DIR01_LINE_NUM_COEF = ( 2.648644e-02,  9.668328e-01, -1.507280e-01, -6.969396e-05, -7.142726e-09)
  BAND03_DIR01_LINE_DEN_COEF = (-2.398024e-09, -7.292528e-08, -8.226451e-10,  1.945623e-12)
  BAND03_DIR01_SAMP_NUM_COEF = (-7.957595e-01,  2.200984e-01,  9.809975e-01,  1.731849e-05, -2.756268e-07)
  BAND03_DIR01_SAMP_DEN_COEF = (-2.831883e-07, -1.642500e-07, -1.585126e-06,  1.048775e-10)
END_GROUP = RPC_BAND03
GROUP = RPC_BAND04
  BAND04_LINES_PER_SCAN = 16
  BAND04_NUMBER_OF_DIRECTIONS = 2
  BAND04_NUM_L1T_LINES = 7021
  BAND04_NUM_L1T_SAMPS = 7841
  BAND04_NUM_L1R_LINES = 5999
  BAND04_NUM_L1R_SAMPS = 6599
  BAND04_PIXEL_SIZE = 30.000
  BAND04_START_TIME =   0.000000
  BAND04_LINE_TIME = 0.000000
  BAND04_MEAN_HEIGHT = 4000.000
  BAND04_MEAN_L1R_LINE_SAMP = (2999.500, 3299.015)
  BAND04_MEAN_L1T_LINE_SAMP = (3512.758, 3936.416)
  BAND04_MEAN_SAT_VECTOR = (-0.000930290, -0.001784890,  0.995836628)
  BAND04_SAT_X_NUM_COEF = (-2.504137e-05, -5.206997e-07, -4.755045e-05, -1.306210e-09, -1.012839e-05, 
                           -5.314701e-13,  2.685219e-12,  5.885850e-12, -2.211224e-15,  6.182234e-17)
  BAND04_SAT_X_DEN_COEF = ( 1.172273e-06, -1.534816e-07, -1.417567e-06, -1.199023e-06,  9.383940e-11, 
                            4.178024e-10,  9.782024e-10,  6.603743e-17, -9.342132e-18)
  BAND04_SAT_Y_NUM_COEF = (-2.170003e-04,  4.730236e-05, -4.096262e-07, -2.534270e-09, -4.734064e-05, 
                            1.674367e-12,  2.199805e-11,  5.485645e-11, -1.995500e-15, -2.288041e-17)
  BAND04_SAT_Y_DEN_COEF = ( 2.758466e-06, -7.412431e-07, -1.393455e-06, -2.431932e-06, -2.242713e-10, 
                            6.752427e-10,  9.532679e-10,  2.888695e-15, -3.993357e-16)
  BAND04_SAT_Z_NUM_COEF = ( 4.160905e-03,  9.819013e-08, -4.726550e-08, -1.188084e-08, -1.085346e-07, 
                           -5.404754e-11, -4.822742e-10, -1.075692e-09, -3.229074e-17, -3.328716e-19)
  BAND04_SAT_Z_DEN_COEF = ( 2.553575e-06, -4.923211e-07, -2.852888e-06, -2.630902e-06,  7.257465e-11, 
                            6.310644e-10,  1.419726e-09,  1.753867e-17, -5.905293e-17)
  BAND04_MEAN_SUN_VECTOR = ( 0.368995184, -0.478200832,  0.796884666)
  BAND04_SUN_X_NUM_COEF = ( 1.690012e-05, -3.347627e-08, -4.328072e-06,  9.068608e-14, -2.896238e-07, 
                           -8.553043e-13, -1.112277e-11, -2.494107e-12, -2.332782e-18,  3.731446e-18)
  BAND04_SUN_X_DEN_COEF = ( 3.826139e-06, -5.086011e-07, -2.231867e-10, -1.195139e-07, -7.404055e-12, 
                           -1.562865e-12,  8.573794e-12, -2.270907e-17, -2.828094e-17)
  BAND04_SUN_Y_NUM_COEF = (-3.562961e-05,  3.767376e-06, -4.754082e-07,  7.566620e-15, -2.983851e-08, 
                            1.073535e-11,  9.388045e-12,  4.704476e-12, -1.290930e-17, -5.088082e-17)
  BAND04_SUN_Y_DEN_COEF = ( 1.383305e-06,  1.060747e-07, -2.384202e-13, -1.324733e-07, -1.107750e-11, 
                            2.548743e-12,  2.223014e-11,  2.007248e-17,  2.392611e-17)
  BAND04_SUN_Z_NUM_COEF = ( 5.947849e-05,  2.276555e-06,  1.718688e-06, -5.368291e-14,  1.158978e-07, 
                           -1.094391e-11, -3.323346e-12, -9.108592e-12,  2.439551e-17,  1.457054e-17)
  BAND04_SUN_Z_DEN_COEF = (-1.180865e-06, -3.147938e-07, -7.491027e-11,  3.480490e-07,  8.679633e-12, 
                           -1.280912e-12,  6.568144e-12,  6.143479e-18,  1.407136e-17)
  BAND04_DIR00_MEAN_HEIGHT = 4000.000
  BAND04_DIR00_MEAN_L1R_LINE_SAMP = (2999.500, 3299.015)
  BAND04_DIR00_MEAN_L1T_LINE_SAMP = (3512.783, 3936.540)
  BAND04_DIR00_LINE_NUM_COEF = ( 3.775887e-02,  9.668331e-01, -1.507271e-01, -6.965413e-05, -1.016494e-09)
  BAND04_DIR00_LINE_DEN_COEF = (-2.444242e-09, -6.700948e-08, -8.227357e-10,  1.945666e-12)
  BAND04_DIR00_SAMP_NUM_COEF = (-5.295327e-01,  2.200970e-01,  9.809912e-01,  1.729462e-05, -2.756870e-07)
  BAND04_DIR00_SAMP_DEN_COEF = (-2.825333e-07, -1.611778e-07, -1.585126e-06,  1.048991e-10)
  BAND04_DIR01_MEAN_HEIGHT = 4000.000
  BAND04_DIR01_MEAN_L1R_LINE_SAMP = (2999.500, 3299.015)
  BAND04_DIR01_MEAN_L1T_LINE_SAMP = (3512.733, 3936.292)
  BAND04_DIR01_LINE_NUM_COEF = ( 2.643440e-02,  9.668331e-01, -1.507271e-01, -6.965413e-05, -1.016534e-09)
  BAND04_DIR01_LINE_DEN_COEF = (-2.444725e-09, -6.700962e-08, -8.227356e-10,  1.945666e-12)
  BAND04_DIR01_SAMP_NUM_COEF = (-7.841120e-01,  2.200970e-01,  9.809912e-01,  1.729462e-05, -2.756892e-07)
  BAND04_DIR01_SAMP_DEN_COEF = (-2.825615e-07, -1.611835e-07, -1.585126e-06,  1.048991e-10)
END_GROUP = RPC_BAND04
GROUP = RPC_BAND05
  BAND05_LINES_PER_SCAN = 16
  BAND05_NUMBER_OF_DIRECTIONS = 2
  BAND05_NUM_L1T_LINES = 7021
  BAND05_NUM_L1T_SAMPS = 7841
  BAND05_NUM_L1R_LINES = 5999
  BAND05_NUM_L1R_SAMPS = 6599
  BAND05_PIXEL_SIZE = 30.000
  BAND05_START_TIME =   0.000000
  BAND05_LINE_TIME = 0.000000
  BAND05_MEAN_HEIGHT = 4000.000
  BAND05_MEAN_L1R_LINE_SAMP = (2999.500, 3299.015)
  BAND05_MEAN_L1T_LINE_SAMP = (3513.189, 3936.347)
  BAND05_MEAN_SAT_VECTOR = (-0.000927154, -0.001764419,  0.995836540)
  BAND05_SAT_X_NUM_COEF = (-2.504306e-05, -5.230163e-07, -4.755007e-05, -1.301787e-09, -1.012599e-05, 
                           -5.318493e-13,  2.677003e-12,  5.859169e-12, -2.298554e-15,  6.182421e-17)
  BAND05_SAT_X_DEN_COEF = ( 1.350694e-06, -1.807755e-07, -1.417579e-06, -1.383540e-06,  9.559159e-11, 
                            4.172691e-10,  9.782449e-10,  6.599093e-17, -9.919213e-18)
  BAND05_SAT_Y_NUM_COEF = (-2.169283e-04,  4.730172e-05, -4.095330e-07, -2.504768e-09, -4.733997e-05, 
                            1.674238e-12,  2.202336e-11,  5.493644e-11, -1.941663e-15, -2.270187e-17)
  BAND05_SAT_Y_DEN_COEF = ( 2.782270e-06, -7.297275e-07, -1.393453e-06, -2.454857e-06, -2.168818e-10, 
                            6.729350e-10,  9.533301e-10,  2.821858e-15, -3.888828e-16)
  BAND05_SAT_Z_NUM_COEF = ( 4.161037e-03,  8.849689e-08, -4.574819e-08, -1.188047e-08, -9.850810e-08, 
                           -5.404757e-11, -4.822749e-10, -1.075692e-09, -3.227227e-17, -3.117161e-19)
  BAND05_SAT_Z_DEN_COEF = (-5.154094e-07, -1.415233e-08, -2.852668e-06,  5.432523e-07,  7.256578e-11, 
                            6.308590e-10,  1.419749e-09,  2.517811e-17, -5.163176e-17)
  BAND05_MEAN_SUN_VECTOR = ( 0.368995469, -0.478199173,  0.796885527)
  BAND05_SUN_X_NUM_COEF = ( 1.690061e-05, -3.348836e-08, -4.328067e-06,  9.061660e-14, -2.896118e-07, 
                           -8.472744e-13, -1.100366e-11, -2.365033e-12, -2.342249e-18,  3.734180e-18)
  BAND05_SUN_X_DEN_COEF = ( 3.798990e-06, -5.384891e-07, -2.232029e-10, -1.179163e-07, -7.431084e-12, 
                           -1.571168e-12,  8.606062e-12, -2.224781e-17, -2.811458e-17)
  BAND05_SUN_Y_NUM_COEF = (-3.563006e-05,  3.767378e-06, -4.754046e-07,  7.474848e-15, -2.983592e-08, 
                            1.072090e-11,  9.391284e-12,  4.704259e-12, -1.291215e-17, -5.124297e-17)
  BAND05_SUN_Y_DEN_COEF = ( 1.378626e-06,  1.065799e-07, -1.737405e-13, -1.316310e-07, -1.115896e-11, 
                            2.587842e-12,  2.223273e-11,  2.026412e-17,  2.401201e-17)
  BAND05_SUN_Z_NUM_COEF = ( 5.947959e-05,  2.276497e-06,  1.718697e-06, -4.978182e-14,  1.159493e-07, 
                           -1.094977e-11, -3.332368e-12, -9.112057e-12,  2.439559e-17,  1.456589e-17)
  BAND05_SUN_Z_DEN_COEF = (-1.182396e-06, -3.169675e-07, -7.498762e-11,  3.470954e-07,  8.668626e-12, 
                           -1.280954e-12,  6.558494e-12,  6.026856e-18,  1.409142e-17)
  BAND05_DIR00_MEAN_HEIGHT = 4000.000
  BAND05_DIR00_MEAN_L1R_LINE_SAMP = (2999.500, 3299.015)
  BAND05_DIR00_MEAN_L1T_LINE_SAMP = (3513.211, 3936.482)
  BAND05_DIR00_LINE_NUM_COEF = ( 2.995517e-02,  9.668336e-01, -1.507248e-01, -6.871870e-05,  1.278393e-08)
  BAND05_DIR00_LINE_DEN_COEF = (-2.549740e-09, -5.368605e-08, -8.229562e-10,  1.945855e-12)
  BAND05_DIR00_SAMP_NUM_COEF = (-4.765046e-01,  2.200933e-01,  9.809751e-01,  1.726846e-05, -2.758648e-07)
  BAND05_DIR00_SAMP_DEN_COEF = (-2.807408e-07, -1.524317e-07, -1.585126e-06,  1.048722e-10)
  BAND05_DIR01_MEAN_HEIGHT = 4000.000
  BAND05_DIR01_MEAN_L1R_LINE_SAMP = (2999.500, 3299.015)
  BAND05_DIR01_MEAN_L1T_LINE_SAMP = (3513.167, 3936.212)
  BAND05_DIR01_LINE_NUM_COEF = ( 2.834043e-02,  9.668336e-01, -1.507248e-01, -6.871870e-05,  1.278388e-08)
  BAND05_DIR01_LINE_DEN_COEF = (-2.550265e-09, -5.368618e-08, -8.229562e-10,  1.945855e-12)
  BAND05_DIR01_SAMP_NUM_COEF = (-7.508850e-01,  2.200933e-01,  9.809751e-01,  1.726846e-05, -2.758668e-07)
  BAND05_DIR01_SAMP_DEN_COEF = (-2.807710e-07, -1.524367e-07, -1.585126e-06,  1.048722e-10)
END_GROUP = RPC_BAND05
GROUP = RPC_BAND61
  BAND61_LINES_PER_SCAN = 8
  BAND61_NUMBER_OF_DIRECTIONS = 2
  BAND61_NUM_L1T_LINES = 7021
  BAND61_NUM_L1T_SAMPS = 7841
  BAND61_NUM_L1R_LINES = 2999
  BAND61_NUM_L1R_SAMPS = 3299
  BAND61_PIXEL_SIZE = 30.000
  BAND61_START_TIME =   0.000000
  BAND61_LINE_TIME = 0.000000
  BAND61_MEAN_HEIGHT = 4000.000
  BAND61_MEAN_L1R_LINE_SAMP = (1499.500, 1649.015)
  BAND61_MEAN_L1T_LINE_SAMP = (3513.453, 3935.727)
  BAND61_MEAN_SAT_VECTOR = (-0.000892926, -0.001727848,  0.995836692)
  BAND61_SAT_X_NUM_COEF = (-2.471891e-05, -5.332988e-07, -4.754843e-05, -1.252588e-09, -2.023071e-05, 
                           -5.252451e-13,  2.706208e-12,  5.851688e-12, -2.311407e-14,  4.940007e-16)
  BAND61_SAT_X_DEN_COEF = ( 1.721555e-06, -2.405349e-07, -1.417600e-06, -3.536574e-06,  1.074448e-10, 
                            4.136043e-10,  9.785424e-10,  5.624049e-16, -9.440387e-17)
  BAND61_SAT_Y_NUM_COEF = (-2.168189e-04,  4.722725e-05, -3.980366e-07, -2.448898e-09, -9.452599e-05, 
                            1.897732e-12,  2.214158e-11,  5.462401e-11, -6.079996e-14, -3.302100e-16)
  BAND61_SAT_Y_DEN_COEF = (-7.786873e-06,  8.801341e-07, -1.393163e-06,  1.703111e-05, -9.936522e-10, 
                            9.130606e-10,  9.341112e-10,  7.797972e-14, -1.174051e-14)
  BAND61_SAT_Z_NUM_COEF = ( 4.160989e-03,  8.238822e-08, -4.341338e-08, -1.187973e-08, -1.837625e-07, 
                           -5.404755e-11, -4.822754e-10, -1.075693e-09, -2.581427e-16, -2.417845e-18)
  BAND61_SAT_Z_DEN_COEF = (-2.042807e-06,  2.220326e-07, -2.852566e-06,  4.245197e-06,  7.256132e-11, 
                            6.307564e-10,  1.419760e-09,  2.289784e-16, -3.913426e-16)
  BAND61_MEAN_SUN_VECTOR = ( 0.368998289, -0.478197869,  0.796885005)
  BAND61_SUN_X_NUM_COEF = ( 1.690056e-05, -3.349267e-08, -4.328059e-06,  9.087509e-14, -5.792186e-07, 
                           -8.608648e-13, -1.120729e-11, -2.602668e-12, -4.932988e-17,  3.449561e-17)
  BAND61_SUN_X_DEN_COEF = ( 3.981906e-06, -5.047701e-07, -2.286553e-10, -5.242970e-07, -6.544241e-12, 
                           -1.806914e-12,  8.563828e-12, -1.918556e-16, -2.204713e-16)
  BAND61_SUN_Y_NUM_COEF = (-3.562953e-05,  3.767361e-06, -4.754061e-07,  8.207153e-15, -5.964291e-08, 
                            1.071449e-11,  9.392661e-12,  4.704158e-12, -1.022542e-16, -4.131156e-16)
  BAND61_SUN_Y_DEN_COEF = ( 1.377165e-06,  1.066666e-07, -1.778053e-13, -2.637797e-07, -1.124489e-11, 
                            2.655659e-12,  2.222616e-11,  1.635142e-16,  1.930457e-16)
  BAND61_SUN_Z_NUM_COEF = ( 5.947909e-05,  2.276492e-06,  1.718708e-06, -4.992052e-14,  2.319030e-07, 
                           -1.091616e-11, -3.323820e-12, -9.123021e-12,  1.969401e-16,  1.155348e-16)
  BAND61_SUN_Z_DEN_COEF = (-1.128572e-06, -3.296177e-07, -7.750696e-11,  6.119602e-07,  8.693298e-12, 
                           -1.212777e-12,  6.529094e-12,  4.799848e-17,  1.140508e-16)
  BAND61_DIR00_MEAN_HEIGHT = 4000.000
  BAND61_DIR00_MEAN_L1R_LINE_SAMP = (1499.500, 1649.015)
  BAND61_DIR00_MEAN_L1T_LINE_SAMP = (3513.665, 3937.099)
  BAND61_DIR00_LINE_NUM_COEF = ( 1.328410e-02,  4.834169e-01, -7.536189e-02, -3.401889e-05,  9.391916e-09)
  BAND61_DIR00_LINE_DEN_COEF = (-2.594065e-09, -4.789496e-08, -8.193547e-10,  1.939770e-12)
  BAND61_DIR00_SAMP_NUM_COEF = ( 1.022703e+00,  1.100454e-01,  4.904841e-01,  7.193653e-06, -1.379818e-07)
  BAND61_DIR00_SAMP_DEN_COEF = (-2.803196e-07, -1.512560e-07, -1.585127e-06,  1.047844e-10)
  BAND61_DIR01_MEAN_HEIGHT = 4000.000
  BAND61_DIR01_MEAN_L1R_LINE_SAMP = (1499.500, 1649.015)
  BAND61_DIR01_MEAN_L1T_LINE_SAMP = (3513.240, 3934.348)
  BAND61_DIR01_LINE_NUM_COEF = ( 1.499927e-02,  4.834168e-01, -7.536189e-02, -3.401889e-05,  9.391717e-09)
  BAND61_DIR01_LINE_DEN_COEF = (-2.599399e-09, -4.789617e-08, -8.193546e-10,  1.939770e-12)
  BAND61_DIR01_SAMP_NUM_COEF = (-3.733126e-01,  1.100458e-01,  4.904839e-01,  7.193652e-06, -1.379912e-07)
  BAND61_DIR01_SAMP_DEN_COEF = (-2.806265e-07, -1.513045e-07, -1.585126e-06,  1.047843e-10)
END_GROUP = RPC_BAND61
GROUP = RPC_BAND62
  BAND62_LINES_PER_SCAN = 8
  BAND62_NUMBER_OF_DIRECTIONS = 2
  BAND62_NUM_L1T_LINES = 7021
  BAND62_NUM_L1T_SAMPS = 7841
  BAND62_NUM_L1R_LINES = 2999
  BAND62_NUM_L1R_SAMPS = 3299
  BAND62_PIXEL_SIZE = 30.000
  BAND62_START_TIME =   0.000000
  BAND62_LINE_TIME = 0.000000
  BAND62_MEAN_HEIGHT = 4000.000
  BAND62_MEAN_L1R_LINE_SAMP = (1499.500, 1649.015)
  BAND62_MEAN_L1T_LINE_SAMP = (3513.453, 3935.727)
  BAND62_MEAN_SAT_VECTOR = (-0.000892926, -0.001727848,  0.995836692)
  BAND62_SAT_X_NUM_COEF = (-2.471891e-05, -5.332988e-07, -4.754843e-05, -1.252588e-09, -2.023071e-05, 
                           -5.252451e-13,  2.706208e-12,  5.851688e-12, -2.311407e-14,  4.940007e-16)
  BAND62_SAT_X_DEN_COEF = ( 1.721555e-06, -2.405349e-07, -1.417600e-06, -3.536574e-06,  1.074448e-10, 
                            4.136043e-10,  9.785424e-10,  5.624049e-16, -9.440387e-17)
  BAND62_SAT_Y_NUM_COEF = (-2.168189e-04,  4.722725e-05, -3.980366e-07, -2.448898e-09, -9.452599e-05, 
                            1.897732e-12,  2.214158e-11,  5.462401e-11, -6.079996e-14, -3.302100e-16)
  BAND62_SAT_Y_DEN_COEF = (-7.786873e-06,  8.801341e-07, -1.393163e-06,  1.703111e-05, -9.936522e-10, 
                            9.130606e-10,  9.341112e-10,  7.797972e-14, -1.174051e-14)
  BAND62_SAT_Z_NUM_COEF = ( 4.160989e-03,  8.238822e-08, -4.341338e-08, -1.187973e-08, -1.837625e-07, 
                           -5.404755e-11, -4.822754e-10, -1.075693e-09, -2.581427e-16, -2.417845e-18)
  BAND62_SAT_Z_DEN_COEF = (-2.042807e-06,  2.220326e-07, -2.852566e-06,  4.245197e-06,  7.256132e-11, 
                            6.307564e-10,  1.419760e-09,  2.289784e-16, -3.913426e-16)
  BAND62_MEAN_SUN_VECTOR = ( 0.368998289, -0.478197869,  0.796885005)
  BAND62_SUN_X_NUM_COEF = ( 1.690056e-05, -3.349267e-08, -4.328059e-06,  9.087509e-14, -5.792186e-07, 
                           -8.608648e-13, -1.120729e-11, -2.602668e-12, -4.932988e-17,  3.449561e-17)
  BAND62_SUN_X_DEN_COEF = ( 3.981906e-06, -5.047701e-07, -2.286553e-10, -5.242970e-07, -6.544241e-12, 
                           -1.806914e-12,  8.563828e-12, -1.918556e-16, -2.204713e-16)
  BAND62_SUN_Y_NUM_COEF = (-3.562953e-05,  3.767361e-06, -4.754061e-07,  8.207153e-15, -5.964291e-08, 
                            1.071449e-11,  9.392661e-12,  4.704158e-12, -1.022542e-16, -4.131156e-16)
  BAND62_SUN_Y_DEN_COEF = ( 1.377165e-06,  1.066666e-07, -1.778053e-13, -2.637797e-07, -1.124489e-11, 
                            2.655659e-12,  2.222616e-11,  1.635142e-16,  1.930457e-16)
  BAND62_SUN_Z_NUM_COEF = ( 5.947909e-05,  2.276492e-06,  1.718708e-06, -4.992052e-14,  2.319030e-07, 
                           -1.091616e-11, -3.323820e-12, -9.123021e-12,  1.969401e-16,  1.155348e-16)
  BAND62_SUN_Z_DEN_COEF = (-1.128572e-06, -3.296177e-07, -7.750696e-11,  6.119602e-07,  8.693298e-12, 
                           -1.212777e-12,  6.529094e-12,  4.799848e-17,  1.140508e-16)
  BAND62_DIR00_MEAN_HEIGHT = 4000.000
  BAND62_DIR00_MEAN_L1R_LINE_SAMP = (1499.500, 1649.015)
  BAND62_DIR00_MEAN_L1T_LINE_SAMP = (3513.665, 3937.099)
  BAND62_DIR00_LINE_NUM_COEF = ( 1.328410e-02,  4.834169e-01, -7.536189e-02, -3.401889e-05,  9.391916e-09)
  BAND62_DIR00_LINE_DEN_COEF = (-2.594065e-09, -4.789496e-08, -8.193547e-10,  1.939770e-12)
  BAND62_DIR00_SAMP_NUM_COEF = ( 1.022703e+00,  1.100454e-01,  4.904841e-01,  7.193653e-06, -1.379818e-07)
  BAND62_DIR00_SAMP_DEN_COEF = (-2.803196e-07, -1.512560e-07, -1.585127e-06,  1.047844e-10)
  BAND62_DIR01_MEAN_HEIGHT = 4000.000
  BAND62_DIR01_MEAN_L1R_LINE_SAMP = (1499.500, 1649.015)
  BAND62_DIR01_MEAN_L1T_LINE_SAMP = (3513.240, 3934.348)
  BAND62_DIR01_LINE_NUM_COEF = ( 1.499927e-02,  4.834168e-01, -7.536189e-02, -3.401889e-05,  9.391717e-09)
  BAND62_DIR01_LINE_DEN_COEF = (-2.599399e-09, -4.789617e-08, -8.193546e-10,  1.939770e-12)
  BAND62_DIR01_SAMP_NUM_COEF = (-3.733126e-01,  1.100458e-01,  4.904839e-01,  7.193652e-06, -1.379912e-07)
  BAND62_DIR01_SAMP_DEN_COEF = (-2.806265e-07, -1.513045e-07, -1.585126e-06,  1.047843e-10)
END_GROUP = RPC_BAND62
GROUP = RPC_BAND07
  BAND07_LINES_PER_SCAN = 16
  BAND07_NUMBER_OF_DIRECTIONS = 2
  BAND07_NUM_L1T_LINES = 7021
  BAND07_NUM_L1T_SAMPS = 7841
  BAND07_NUM_L1R_LINES = 5999
  BAND07_NUM_L1R_SAMPS = 6599
  BAND07_PIXEL_SIZE = 30.000
  BAND07_START_TIME =   0.000000
  BAND07_LINE_TIME = 0.000000
  BAND07_MEAN_HEIGHT = 4000.000
  BAND07_MEAN_L1R_LINE_SAMP = (2999.500, 3299.015)
  BAND07_MEAN_L1T_LINE_SAMP = (3513.187, 3936.363)
  BAND07_MEAN_SAT_VECTOR = (-0.000927893, -0.001764511,  0.995836585)
  BAND07_SAT_X_NUM_COEF = (-2.504597e-05, -5.223456e-07, -4.755017e-05, -1.302852e-09, -1.012669e-05, 
                           -5.319882e-13,  2.678097e-12,  5.866622e-12, -2.270888e-15,  6.182287e-17)
  BAND07_SAT_X_DEN_COEF = ( 1.286476e-06, -1.708800e-07, -1.417575e-06, -1.317096e-06,  9.503649e-11, 
                            4.174375e-10,  9.782315e-10,  6.605276e-17, -9.718231e-18)
  BAND07_SAT_Y_NUM_COEF = (-2.169256e-04,  4.730174e-05, -4.095343e-07, -2.505063e-09, -4.734000e-05, 
                            1.674156e-12,  2.201333e-11,  5.490677e-11, -1.962365e-15, -2.277011e-17)
  BAND07_SAT_Y_DEN_COEF = ( 2.768995e-06, -7.321425e-07, -1.393453e-06, -2.441598e-06, -2.197235e-10, 
                            6.738195e-10,  9.532938e-10,  2.847469e-15, -3.928872e-16)
  BAND07_SAT_Z_NUM_COEF = ( 4.160992e-03,  9.171308e-08, -4.628408e-08, -1.188057e-08, -1.018423e-07, 
                           -5.404755e-11, -4.822747e-10, -1.075692e-09, -3.227930e-17, -3.194008e-19)
  BAND07_SAT_Z_DEN_COEF = ( 6.163113e-07, -1.904174e-07, -2.852749e-06, -6.272368e-07,  7.256907e-11, 
                            6.309349e-10,  1.419740e-09,  2.235969e-17, -5.433454e-17)
  BAND07_MEAN_SUN_VECTOR = ( 0.368995402, -0.478199188,  0.796885550)
  BAND07_SUN_X_NUM_COEF = ( 1.690043e-05, -3.348792e-08, -4.328067e-06,  9.052578e-14, -2.896120e-07, 
                           -8.499735e-13, -1.104396e-11, -2.411808e-12, -2.342476e-18,  3.733799e-18)
  BAND07_SUN_X_DEN_COEF = ( 3.808239e-06, -5.276707e-07, -2.231964e-10, -1.185798e-07, -7.421245e-12, 
                           -1.567648e-12,  8.594391e-12, -2.240899e-17, -2.816769e-17)
  BAND07_SUN_Y_NUM_COEF = (-3.562983e-05,  3.767357e-06, -4.754011e-07,  8.754403e-15, -2.981377e-08, 
                            1.070394e-11,  9.395716e-12,  4.703970e-12, -1.291340e-17, -5.163926e-17)
  BAND07_SUN_Y_DEN_COEF = ( 1.373843e-06,  1.072334e-07, -1.502557e-13, -1.313759e-07, -1.124752e-11, 
                            2.631744e-12,  2.223562e-11,  2.047639e-17,  2.408893e-17)
  BAND07_SUN_Z_NUM_COEF = ( 5.947923e-05,  2.276514e-06,  1.718694e-06, -5.095494e-14,  1.159322e-07, 
                           -1.094704e-11, -3.328395e-12, -9.110614e-12,  2.438465e-17,  1.455519e-17)
  BAND07_SUN_Z_DEN_COEF = (-1.181518e-06, -3.160781e-07, -7.498314e-11,  3.473708e-07,  8.667949e-12, 
                           -1.278773e-12,  6.562374e-12,  6.057119e-18,  1.408370e-17)
  BAND07_DIR00_MEAN_HEIGHT = 4000.000
  BAND07_DIR00_MEAN_L1R_LINE_SAMP = (2999.500, 3299.015)
  BAND07_DIR00_MEAN_L1T_LINE_SAMP = (3513.210, 3936.493)
  BAND07_DIR00_LINE_NUM_COEF = ( 3.338388e-02,  9.668334e-01, -1.507256e-01, -6.882132e-05,  6.720878e-09)
  BAND07_DIR00_LINE_DEN_COEF = (-2.503527e-09, -5.954047e-08, -8.228666e-10,  1.945737e-12)
  BAND07_DIR00_SAMP_NUM_COEF = (-4.958156e-01,  2.200946e-01,  9.809807e-01,  1.731722e-05, -2.757979e-07)
  BAND07_DIR00_SAMP_DEN_COEF = (-2.813884e-07, -1.556046e-07, -1.585126e-06,  1.048972e-10)
  BAND07_DIR01_MEAN_HEIGHT = 4000.000
  BAND07_DIR01_MEAN_L1R_LINE_SAMP = (2999.500, 3299.015)
  BAND07_DIR01_MEAN_L1T_LINE_SAMP = (3513.164, 3936.231)
  BAND07_DIR01_LINE_NUM_COEF = ( 2.821036e-02,  9.668334e-01, -1.507256e-01, -6.882132e-05,  6.720835e-09)
  BAND07_DIR01_LINE_DEN_COEF = (-2.504037e-09, -5.954060e-08, -8.228666e-10,  1.945737e-12)
  BAND07_DIR01_SAMP_NUM_COEF = (-7.629371e-01,  2.200947e-01,  9.809807e-01,  1.731722e-05, -2.757999e-07)
  BAND07_DIR01_SAMP_DEN_COEF = (-2.814179e-07, -1.556098e-07, -1.585126e-06,  1.048972e-10)
END_GROUP = RPC_BAND07
GROUP = RPC_BAND08
  BAND08_LINES_PER_SCAN = 32
  BAND08_NUMBER_OF_DIRECTIONS = 2
  BAND08_NUM_L1T_LINES = 14041
  BAND08_NUM_L1T_SAMPS = 15681
  BAND08_NUM_L1R_LINES = 11999
  BAND08_NUM_L1R_SAMPS = 13199
  BAND08_PIXEL_SIZE = 15.000
  BAND08_START_TIME =   0.000000
  BAND08_LINE_TIME = 0.000000
  BAND08_MEAN_HEIGHT = 4000.000
  BAND08_MEAN_L1R_LINE_SAMP = (5999.500, 6599.008)
  BAND08_MEAN_L1T_LINE_SAMP = (7025.557, 7872.626)
  BAND08_MEAN_SAT_VECTOR = (-0.000928447, -0.001798997,  0.995897891)
  BAND08_SAT_X_NUM_COEF = (-2.456988e-05, -2.519323e-07, -2.377655e-05, -1.304958e-09, -5.072905e-06, 
                           -1.324939e-13,  6.737706e-13,  1.474855e-12, -2.459823e-16,  7.728103e-18)
  BAND08_SAT_X_DEN_COEF = ( 4.691599e-07, -5.877834e-08, -1.417708e-06, -4.786100e-07,  2.223972e-11, 
                            1.048363e-10,  2.445413e-10,  8.096625e-18, -1.030331e-18)
  BAND08_SAT_Y_NUM_COEF = (-2.138152e-04,  2.365116e-05, -2.048121e-07, -2.554949e-09, -2.367029e-05, 
                            4.150695e-13,  5.475705e-12,  1.368633e-11, -2.609150e-16, -2.901230e-18)
  BAND08_SAT_Y_DEN_COEF = ( 1.423210e-06, -3.877259e-07, -1.393621e-06, -1.267086e-06, -5.921518e-11, 
                            1.698168e-10,  2.382960e-10,  3.751209e-16, -5.213367e-17)
  BAND08_SAT_Z_NUM_COEF = ( 4.099622e-03,  5.488765e-08, -2.444031e-08, -1.170693e-08, -6.023796e-08, 
                           -1.351298e-11, -1.205780e-10, -2.689446e-10, -4.039212e-18, -4.432808e-20)
  BAND08_SAT_Z_DEN_COEF = ( 3.251748e-06, -5.539598e-07, -2.853211e-06, -3.358111e-06,  1.814685e-11, 
                            1.578358e-10,  3.549319e-10,  9.652793e-19, -8.537739e-18)
  BAND08_MEAN_SUN_VECTOR = ( 0.368995766, -0.478201056,  0.796885043)
  BAND08_SUN_X_NUM_COEF = ( 1.669145e-05, -1.672180e-08, -2.164038e-06,  8.812586e-14, -1.448293e-07, 
                           -2.153147e-13, -2.804085e-12, -6.649720e-13, -2.986936e-19,  4.673960e-19)
  BAND08_SUN_X_DEN_COEF = ( 1.923041e-06, -2.350266e-07, -2.230234e-10, -6.024003e-08, -1.842521e-12, 
                           -3.854908e-13,  2.133182e-12, -2.896545e-18, -3.541013e-18)
  BAND08_SUN_Y_NUM_COEF = (-3.528492e-05,  1.883683e-06, -2.377037e-07,  8.283553e-15, -1.491450e-08, 
                            2.683433e-12,  2.347292e-12,  1.176090e-12, -1.618127e-18, -6.342119e-18)
  BAND08_SUN_Y_DEN_COEF = ( 6.913062e-07,  5.317872e-08, -2.278694e-13, -6.610202e-08, -2.761006e-12, 
                            6.322758e-13,  5.558260e-12,  2.500814e-18,  2.984452e-18)
  BAND08_SUN_Z_NUM_COEF = ( 5.900074e-05,  1.138306e-06,  8.593398e-07, -5.763235e-14,  5.791866e-08, 
                           -2.740538e-12, -8.421989e-13, -2.282928e-12,  3.083587e-18,  1.833544e-18)
  BAND08_SUN_Z_DEN_COEF = (-5.914870e-07, -1.646229e-07, -7.432251e-11,  1.711650e-07,  2.177960e-12, 
                           -3.190685e-13,  1.625630e-12,  7.449810e-19,  1.799178e-18)
  BAND08_DIR00_MEAN_HEIGHT = 4000.000
  BAND08_DIR00_MEAN_L1R_LINE_SAMP = (5999.500, 6599.008)
  BAND08_DIR00_MEAN_L1T_LINE_SAMP = (7025.617, 7872.843)
  BAND08_DIR00_LINE_NUM_COEF = ( 1.013188e-01,  9.668324e-01, -1.507301e-01, -1.399321e-04, -1.209315e-08)
  BAND08_DIR00_LINE_DEN_COEF = (-1.133702e-09, -4.469132e-08, -8.244445e-10,  4.859807e-13)
  BAND08_DIR00_SAMP_NUM_COEF = (-1.188133e+00,  2.201069e-01,  9.810829e-01,  3.446475e-05, -1.377239e-07)
  BAND08_DIR00_SAMP_DEN_COEF = (-1.424891e-07, -8.660077e-08, -1.585114e-06,  2.587769e-11)
  BAND08_DIR01_MEAN_HEIGHT = 4000.000
  BAND08_DIR01_MEAN_L1R_LINE_SAMP = (5999.500, 6599.008)
  BAND08_DIR01_MEAN_L1T_LINE_SAMP = (7025.498, 7872.408)
  BAND08_DIR01_LINE_NUM_COEF = ( 5.176851e-02,  9.668324e-01, -1.507301e-01, -1.399321e-04, -1.209317e-08)
  BAND08_DIR01_LINE_DEN_COEF = (-1.133913e-09, -4.469139e-08, -8.244445e-10,  4.859807e-13)
  BAND08_DIR01_SAMP_NUM_COEF = (-1.640519e+00,  2.201070e-01,  9.810829e-01,  3.446475e-05, -1.377251e-07)
  BAND08_DIR01_SAMP_DEN_COEF = (-1.425016e-07, -8.660400e-08, -1.585114e-06,  2.587769e-11)
END_GROUP = RPC_BAND08
END
