   3.6749434984480112e+05  -1.7890920726724716e+06
   3.6758619743736379e+05  -1.7891448041588895e+06
   3.6767943283213960e+05  -1.7892001738014705e+06
   3.6777184572494653e+05  -1.7892576944366558e+06
   3.6786281954046560e+05  -1.7893211015360630e+06
   3.6795254003197490e+05  -1.7893898560246406e+06
   3.6803951503671578e+05  -1.7894677290306105e+06
   3.6812226089598471e+05  -1.7895620151632007e+06
   3.6817435048171692e+05  -1.7897202458744575e+06
   3.6811570739527442e+05  -1.7898784029150254e+06
   3.6802344425977638e+05  -1.7899370450737728e+06
   3.6792411612509890e+05  -1.7899725893502319e+06
   3.6782237303350377e+05  -1.7900007193483452e+06
   3.6772194230197312e+05  -1.7900277755962587e+06
   3.6762161456674564e+05  -1.7900570280436208e+06
   3.6752360568507877e+05  -1.7900948312706221e+06
   3.6743018318105303e+05  -1.7901601745189745e+06
   3.6746481829459977e+05  -1.7902716945422755e+06
   3.6756789121376083e+05  -1.7902686693228940e+06
   3.6767386322340887e+05  -1.7902521671043553e+06
   3.6776695785668318e+05  -1.7902448300986011e+06
   3.6786450833533559e+05  -1.7902559812577222e+06
   3.6795823759714124e+05  -1.7903106675166248e+06
   3.6803807279262989e+05  -1.7904143973431285e+06
   3.6809967584488419e+05  -1.7905848854493913e+06
   3.6809044722614356e+05  -1.7908190016725417e+06
   3.6801811793857330e+05  -1.7909516723935797e+06
   3.6793072158996167e+05  -1.7910269925102652e+06
   3.6783315406645491e+05  -1.7910680904780852e+06
   3.6773244035838667e+05  -1.7910921677885894e+06
   3.6762725478688895e+05  -1.7911105642900139e+06
   3.6752816268080147e+05  -1.7911452392131200e+06
   3.6748377546533220e+05  -1.7912735182624289e+06
   3.6756011597695993e+05  -1.7913991422262744e+06
   3.6765040206322650e+05  -1.7914649971168356e+06
   3.6774484781675879e+05  -1.7915164286503510e+06
   3.6784357822827110e+05  -1.7915523623336444e+06
   3.6794237107482058e+05  -1.7915860153182133e+06
   3.6804243332334695e+05  -1.7916193626738971e+06
   3.6813649429542077e+05  -1.7916772607492427e+06
   3.6812444353643822e+05  -1.7918241470616960e+06
   3.6803279575393395e+05  -1.7918872518510052e+06
   3.6793803908413794e+05  -1.7919373475651855e+06
   3.6784436678943562e+05  -1.7919940877958725e+06
   3.6775282662479981e+05  -1.7920550280922288e+06
   3.6766492156658421e+05  -1.7921285353064986e+06
   3.6758120431529114e+05  -1.7922187352728499e+06
   3.6750253929127147e+05  -1.7923263168137716e+06
   3.6743021069194446e+05  -1.7924563720169752e+06
   3.6737407458858722e+05  -1.7926408340293509e+06
   3.6742583612834685e+05  -1.7928213758761315e+06
   3.6752095482457499e+05  -1.7928290302096573e+06
   3.6762238888041268e+05  -1.7928000368233947e+06
   3.6771842390517384e+05  -1.7927526310539369e+06
   3.6781405031198973e+05  -1.7927047967156647e+06
   3.6791079841661517e+05  -1.7926625899820861e+06
   3.6801405798964360e+05  -1.7926425351215799e+06
   3.6810269015825121e+05  -1.7926944985628647e+06
   3.6810610824363522e+05  -1.7929451481683939e+06
   3.6805403902880318e+05  -1.7931500135525339e+06
   3.6800656049415626e+05  -1.7933687424457208e+06
   3.6796661476376595e+05  -1.7936032813880832e+06
   3.6794648214941478e+05  -1.7938365528937739e+06
   3.6794639766788669e+05  -1.7941259615632878e+06
   3.6790701019099617e+05  -1.7943745625527811e+06
   3.6782973915057012e+05  -1.7944879578114077e+06
   3.6773134067940706e+05  -1.7945311445834145e+06
   3.6762459371028503e+05  -1.7945132794863249e+06
   3.6752961662338913e+05  -1.7944654927444416e+06
   3.6743429892818409e+05  -1.7944161441399732e+06
   3.6733569713358930e+05  -1.7943785718184235e+06
   3.6725159271157027e+05  -1.7943673420480448e+06
   3.6715973043679853e+05  -1.7943837421823705e+06
   3.6707084371601843e+05  -1.7944622770244817e+06
   3.6708789563724829e+05  -1.7946126448372579e+06
   3.6717344606475276e+05  -1.7946991126323950e+06
   3.6726509083140042e+05  -1.7947579390487084e+06
   3.6736008920663776e+05  -1.7948081425696681e+06
   3.6745681413533009e+05  -1.7948520874130877e+06
   3.6755374755684903e+05  -1.7948956826638374e+06
   3.6765033217904804e+05  -1.7949397063506418e+06
   3.6774500218958303e+05  -1.7949867742874254e+06
   3.6783891883120261e+05  -1.7950407672073049e+06
   3.6792946637741878e+05  -1.7951081464851489e+06
   3.6795249701889366e+05  -1.7952455206346400e+06
   3.6785337434707384e+05  -1.7952811211023391e+06
   3.6774530463126657e+05  -1.7952840737750153e+06
   3.6763652179669990e+05  -1.7952860439586909e+06
   3.6752963675669406e+05  -1.7953000148607783e+06
   3.6743369772586139e+05  -1.7953443912634009e+06
   3.6741024797620217e+05  -1.7955469090756192e+06
   3.6748318620602274e+05  -1.7956814282620265e+06
   3.6756866219802847e+05  -1.7957635659034059e+06
   3.6766417847431311e+05  -1.7958096419749788e+06
   3.6777068193982099e+05  -1.7958273896746014e+06
   3.6785333755708614e+05  -1.7958274882517778e+06
   3.6796216201865213e+05  -1.7958203839729512e+06
   3.6807098739791749e+05  -1.7958112140199677e+06
   3.6817982096333645e+05  -1.7958118712201978e+06
   3.6828867207794148e+05  -1.7958233291987327e+06
   3.6838958853377897e+05  -1.7958481244038162e+06
   3.6848713834736048e+05  -1.7958848094580879e+06
   3.6858426129758864e+05  -1.7959278708387220e+06
   3.6868107523354166e+05  -1.7959699473553132e+06
   3.6877541948998213e+05  -1.7960207945643598e+06
   3.6887705348387617e+05  -1.7960481713731680e+06
   3.6897662276337214e+05  -1.7960812981949428e+06
   3.6906471002548985e+05  -1.7961601828428183e+06
   3.6906657418018626e+05  -1.7964364832170445e+06
   3.6911347756002756e+05  -1.7966121955553729e+06
   3.6918919642612466e+05  -1.7967316251557542e+06
   3.6927067770376056e+05  -1.7968290744280699e+06
   3.6935356542619946e+05  -1.7969218974727520e+06
   3.6943488046428002e+05  -1.7970199278402710e+06
   3.6950028788222972e+05  -1.7971795618012608e+06
   3.6944342947387649e+05  -1.7973144293701435e+06
   3.6935802288927580e+05  -1.7973126162760714e+06
   3.6925852074540110e+05  -1.7972750497348141e+06
   3.6916481856387382e+05  -1.7972207166702671e+06
   3.6907260325236851e+05  -1.7971629024761629e+06
   3.6897938195822918e+05  -1.7971083660508734e+06
   3.6888221521244798e+05  -1.7970645324411532e+06
   3.6878050164428732e+05  -1.7970344202360886e+06
   3.6867868464951194e+05  -1.7970230385199706e+06
   3.6857429901163629e+05  -1.7970300272752037e+06
   3.6846958128827688e+05  -1.7970501099310925e+06
   3.6837115202837880e+05  -1.7970840658959521e+06
   3.6827370726979605e+05  -1.7971269719545483e+06
   3.6818082705381041e+05  -1.7971811423101535e+06
   3.6809049615872966e+05  -1.7972474721368994e+06
   3.6800342571706325e+05  -1.7973259638494521e+06
   3.6792204455700156e+05  -1.7974241287957425e+06
   3.6784880885222321e+05  -1.7975506691006990e+06
   3.6779488502063649e+05  -1.7977509113863183e+06
   3.6781067041204905e+05  -1.7979760765457521e+06
   3.6787432657586469e+05  -1.7981326010580999e+06
   3.6795905936349632e+05  -1.7982188761924468e+06
   3.6805616708709515e+05  -1.7982589803021010e+06
   3.6816500372902944e+05  -1.7982646128291937e+06
   3.6826630278981879e+05  -1.7982353602758078e+06
   3.6835678689124028e+05  -1.7981709308248488e+06
   3.6844100043511367e+05  -1.7980839876499868e+06
   3.6852148577465425e+05  -1.7979820723997890e+06
   3.6860552276237716e+05  -1.7978938245965696e+06
   3.6870249836320319e+05  -1.7978622032931407e+06
   3.6879590667377203e+05  -1.7979135193732074e+06
   3.6887267307567655e+05  -1.7980277031295858e+06
   3.6893171220632957e+05  -1.7982078528191859e+06
   3.6893912268229516e+05  -1.7984435591141758e+06
   3.6887894064340001e+05  -1.7986189007149159e+06
   3.6879900142671942e+05  -1.7987222953148996e+06
   3.6871093609673885e+05  -1.7987967455826472e+06
   3.6861818308474036e+05  -1.7988544944387907e+06
   3.6852414748061699e+05  -1.7989074130259473e+06
   3.6843176422451320e+05  -1.7989653389694435e+06
   3.6834869434217073e+05  -1.7990618094987571e+06
   3.6836549378398858e+05  -1.7992584603360838e+06
   3.6844606308377447e+05  -1.7993600312601849e+06
   3.6853127444186702e+05  -1.7994444695623545e+06
   3.6861729339921707e+05  -1.7995256746045498e+06
   3.6869745928546088e+05  -1.7996280834004539e+06
   3.6874635568620579e+05  -1.7998320178694034e+06
   3.6870635759109556e+05  -1.8000789612368827e+06
   3.6871021915899747e+05  -1.8003126504799437e+06
   3.6880315341240179e+05  -1.8003729266593535e+06
   3.6889829297078832e+05  -1.8003215700596182e+06
   3.6898051950678049e+05  -1.8002269883669992e+06
   3.6906273117160005e+05  -1.8001308092793073e+06
   3.6915671599231398e+05  -1.8000896401830504e+06
   3.6924948630276258e+05  -1.8001466318359578e+06
   3.6933290058386984e+05  -1.8002366007295048e+06
   3.6941206343401171e+05  -1.8003426081798344e+06
   3.6949069124844053e+05  -1.8004496656636663e+06
   3.6956941197471495e+05  -1.8005581150183440e+06
   3.6964721160717693e+05  -1.8006677615917358e+06
   3.6972204319155973e+05  -1.8007898290044530e+06
   3.6978985674700711e+05  -1.8009356155478894e+06
   3.6982877470172860e+05  -1.8011772198860305e+06
   3.6981438268389186e+05  -1.8014468177768793e+06
   3.6985536522235838e+05  -1.8016748540562931e+06
   3.6992734696344804e+05  -1.8018059124514437e+06
   3.7001024341759918e+05  -1.8018989798532662e+06
   3.7009808503115864e+05  -1.8019743860726634e+06
   3.7018906155438139e+05  -1.8020364197193782e+06
   3.7028263398974162e+05  -1.8020925822881910e+06
   3.7037471140686964e+05  -1.8021510237670767e+06
   3.7046769494779594e+05  -1.8022071129565325e+06
   3.7055947690258455e+05  -1.8022680127676614e+06
   3.7064979579885723e+05  -1.8023349095811860e+06
   3.7073758060176013e+05  -1.8024094482983465e+06
   3.7082367496204568e+05  -1.8024912998402957e+06
   3.7090733020483732e+05  -1.8025800138501686e+06
   3.7099228607395058e+05  -1.8026658327577750e+06
   3.7108326864292845e+05  -1.8027303701352240e+06
   3.7117727056715544e+05  -1.8027825660891759e+06
   3.7127614117319859e+05  -1.8028199680255104e+06
   3.7137729592086031e+05  -1.8028481945819263e+06
   3.7147732663755625e+05  -1.8028766603140866e+06
   3.7157335921956459e+05  -1.8029211885006209e+06
   3.7166058878367953e+05  -1.8030053807242953e+06
   3.7164732025849092e+05  -1.8032136368006202e+06
   3.7158961323810730e+05  -1.8033956990285604e+06
   3.7166182938867592e+05  -1.8034919299461173e+06
   3.7176800907280203e+05  -1.8034741321018480e+06
   3.7186592937786749e+05  -1.8034376085890548e+06
   3.7196610295948433e+05  -1.8034049055051962e+06
   3.7207062388304470e+05  -1.8033841493888565e+06
   3.7217622904997523e+05  -1.8034045586486515e+06
   3.7225813589174760e+05  -1.8034987658015175e+06
   3.7230883457982156e+05  -1.8037056433690547e+06
   3.7235669854582608e+05  -1.8039233151926307e+06
   3.7241822220007831e+05  -1.8040921488411145e+06
   3.7248904074790847e+05  -1.8042277137766317e+06
   3.7256875048298488e+05  -1.8043317412544666e+06
   3.7265456392888096e+05  -1.8044139155540883e+06
   3.7274631281526934e+05  -1.8044742760108400e+06
   3.7284295398431254e+05  -1.8045184977388813e+06
   3.7294264900451305e+05  -1.8045526848449775e+06
   3.7304571126786480e+05  -1.8045750156986357e+06
   3.7314924146301154e+05  -1.8045960565381227e+06
   3.7325050614363817e+05  -1.8046193922802273e+06
   3.7334807493515697e+05  -1.8046584404031914e+06
   3.7343606866882939e+05  -1.8047315542629785e+06
   3.7350373701590637e+05  -1.8048853072581373e+06
   3.7345889908799902e+05  -1.8050900105262722e+06
   3.7337521254057618e+05  -1.8051799855208017e+06
   3.7328613523135922e+05  -1.8052486720648892e+06
   3.7319452332288993e+05  -1.8053112682638126e+06
   3.7310487583319045e+05  -1.8053804903678771e+06
   3.7302849170242745e+05  -1.8055004699103115e+06
   3.7308024545104150e+05  -1.8056555026550451e+06
   3.7317205788233777e+05  -1.8057151468853741e+06
   3.7326600329732819e+05  -1.8057678206441088e+06
   3.7335551569959731e+05  -1.8058364020218796e+06
   3.7339719131143444e+05  -1.8060138623556769e+06
   3.7333178779518552e+05  -1.8061733632446453e+06
   3.7330052912321710e+05  -1.8063785837148968e+06
   3.7336498326121364e+05  -1.8065410337577381e+06
   3.7341938310095435e+05  -1.8067361022246489e+06
   3.7338976886775804e+05  -1.8069733613826914e+06
   3.7332659239490668e+05  -1.8071368455136037e+06
   3.7325785608190519e+05  -1.8072797505372216e+06
   3.7318773569558683e+05  -1.8074179278911012e+06
   3.7311795655213791e+05  -1.8075572354660493e+06
   3.7305187723658019e+05  -1.8077094667256179e+06
   3.7299258743235795e+05  -1.8078860915053405e+06
   3.7295560678994079e+05  -1.8081401853359288e+06
   3.7294465050618403e+05  -1.8084912963964045e+06
   3.7291705515922484e+05  -1.8087835165233072e+06
   3.7293637285710330e+05  -1.8090350734614569e+06
   3.7300739839777356e+05  -1.8091709342729419e+06
   3.7308982666472637e+05  -1.8092642649556855e+06
   3.7317810418537061e+05  -1.8093385545002446e+06
   3.7326657688117656e+05  -1.8094112069270783e+06
   3.7335310418991023e+05  -1.8094905433530188e+06
   3.7343596463360952e+05  -1.8095830878478209e+06
   3.7351499238273932e+05  -1.8096891669877330e+06
   3.7359066243187856e+05  -1.8098074759807703e+06
   3.7366464656329434e+05  -1.8099319954828518e+06
   3.7374573820054991e+05  -1.8100308563110810e+06
   3.7383060245179356e+05  -1.8101155544605360e+06
   3.7392166431052377e+05  -1.8101786442899879e+06
   3.7401673690922552e+05  -1.8102280865002519e+06
   3.7411458884206001e+05  -1.8102654228265863e+06
   3.7421644944436051e+05  -1.8102850125579000e+06
   3.7432535554641607e+05  -1.8102870391423965e+06
   3.7442707786177192e+05  -1.8102706804048878e+06
   3.7452648091543792e+05  -1.8102361215271670e+06
   3.7462136932638258e+05  -1.8101865200852510e+06
   3.7471399389291269e+05  -1.8101269098092979e+06
   3.7480533290007914e+05  -1.8100665341765229e+06
   3.7489969294754119e+05  -1.8100167264549239e+06
   3.7500656444937916e+05  -1.8100036954692816e+06
   3.7508918781902734e+05  -1.8100984769397159e+06
   3.7507372740224266e+05  -1.8103663501706461e+06
   3.7509699098595884e+05  -1.8106064152157463e+06
   3.7517724637740297e+05  -1.8107082536831086e+06
   3.7527340866056562e+05  -1.8107555758796316e+06
   3.7537389678706735e+05  -1.8107846693087087e+06
   3.7547889551274927e+05  -1.8108019939013699e+06
   3.7558127876382181e+05  -1.8108212254733839e+06
   3.7568306564539787e+05  -1.8108447054216703e+06
   3.7578023454394523e+05  -1.8108864664687177e+06
   3.7582937930321856e+05  -1.8110289739639882e+06
   3.7575636448908492e+05  -1.8111647375567004e+06
   3.7567641645640827e+05  -1.8112676431907299e+06
   3.7560132004073611e+05  -1.8113885852658742e+06
   3.7557200555272546e+05  -1.8116004876749648e+06
   3.7562824749218323e+05  -1.8117926058105312e+06
   3.7567816636701400e+05  -1.8120023556258061e+06
   3.7565175195991748e+05  -1.8122568674630085e+06
   3.7560142519086308e+05  -1.8124552145327895e+06
   3.7563090513323521e+05  -1.8126637755837818e+06
   3.7572676381388353e+05  -1.8127064894276306e+06
   3.7583386489644914e+05  -1.8127055944198538e+06
   3.7593523763141315e+05  -1.8126846161966040e+06
   3.7603779019332171e+05  -1.8126592906712559e+06
   3.7613697364211647e+05  -1.8126267837769913e+06
   3.7623723486295057e+05  -1.8125974650924432e+06
   3.7633833059332735e+05  -1.8125724708337656e+06
   3.7644126716417278e+05  -1.8125550963640297e+06
   3.7654898476920818e+05  -1.8125539832759083e+06
   3.7664992744091630e+05  -1.8125778566650373e+06
   3.7674582941075490e+05  -1.8126221538465354e+06
   3.7683924009863409e+05  -1.8126771835668194e+06
   3.7693517713446153e+05  -1.8127257965654898e+06
   3.7702721083659306e+05  -1.8126940655541532e+06
   3.7710782955207356e+05  -1.8125923193579575e+06
   3.7717166678473621e+05  -1.8124319621555721e+06
   3.7723070251026010e+05  -1.8122543516242183e+06
   3.7729479475038411e+05  -1.8120950626124225e+06
   3.7737485501186136e+05  -1.8119912240977404e+06
   3.7746672132385185e+05  -1.8120101888767977e+06
   3.7751750260722334e+05  -1.8122194929721374e+06
   3.7752100251388899e+05  -1.8125426890734516e+06
   3.7758210799899261e+05  -1.8127159364366068e+06
   3.7767336272448272e+05  -1.8127793955957417e+06
   3.7777222939133336e+05  -1.8128138779509307e+06
   3.7787279700449383e+05  -1.8128427817606251e+06
   3.7797041992521891e+05  -1.8128842803445132e+06
   3.7805844448614726e+05  -1.8129610856734023e+06
   3.7806325651081593e+05  -1.8131349768523395e+06
   3.7798267631489859e+05  -1.8132412228168526e+06
   3.7789647713410971e+05  -1.8133214687735140e+06
   3.7781075027881045e+05  -1.8134034991036365e+06
   3.7773165933088504e+05  -1.8135097707866642e+06
   3.7767358179939847e+05  -1.8136846379149905e+06
   3.7770458493409067e+05  -1.8139166587465648e+06
   3.7777229606205237e+05  -1.8140629145299802e+06
   3.7784551476468937e+05  -1.8141899540904956e+06
   3.7792225142873538e+05  -1.8143045743061840e+06
   3.7800025371156668e+05  -1.8144141937885897e+06
   3.7807682981320348e+05  -1.8145288928369349e+06
   3.7812056242091377e+05  -1.8146923830829074e+06
   3.7802778389569797e+05  -1.8147550994760690e+06
   3.7793332079405920e+05  -1.8147639530451950e+06
   3.7783026331744343e+05  -1.8147674042990545e+06
   3.7772150329843530e+05  -1.8147705466325423e+06
   3.7761496032775304e+05  -1.8147851778317099e+06
   3.7751358195628645e+05  -1.8148124759127249e+06
   3.7741863988726801e+05  -1.8148611285531945e+06
   3.7733608611584955e+05  -1.8149529861489241e+06
   3.7729516154889110e+05  -1.8151533559939053e+06
   3.7736308961683587e+05  -1.8153045611463801e+06
   3.7745144818033470e+05  -1.8153789523798733e+06
   3.7754819240711455e+05  -1.8154230050972987e+06
   3.7764970544833958e+05  -1.8154481408738778e+06
   3.7775199584419071e+05  -1.8154608746481836e+06
   3.7786072238999727e+05  -1.8154636964416842e+06
   3.7796988266518124e+05  -1.8154618053286078e+06
   3.7806655006505945e+05  -1.8154587392695772e+06
   3.7815567065199430e+05  -1.8154563830784671e+06
   3.7826272913967265e+05  -1.8154561909953854e+06
   3.7836434217080037e+05  -1.8154649962243871e+06
   3.7846681511462142e+05  -1.8154939563878346e+06
   3.7855646672028227e+05  -1.8155640719532389e+06
   3.7856441796450043e+05  -1.8158056049060484e+06
   3.7852253146968991e+05  -1.8160509949276983e+06
   3.7853843629156490e+05  -1.8163593270977973e+06
   3.7854023433971911e+05  -1.8166439643227940e+06
   3.7848186188545218e+05  -1.8168266797252737e+06
   3.7840380491147516e+05  -1.8169368880648757e+06
   3.7831823347540112e+05  -1.8170197087978979e+06
   3.7822686941682792e+05  -1.8170825801802527e+06
   3.7813547257260705e+05  -1.8171434042646522e+06
   3.7804774002457451e+05  -1.8172232576699099e+06
   3.7810177584977931e+05  -1.8173309491108696e+06
   3.7819440856553009e+05  -1.8173884105562989e+06
   3.7828130695862323e+05  -1.8174661648592674e+06
   3.7835269365442841e+05  -1.8176031354490814e+06
   3.7832908811959875e+05  -1.8178140310831890e+06
   3.7825447672807437e+05  -1.8179369676081953e+06
   3.7816613807809964e+05  -1.8180111624212852e+06
   3.7806445669491676e+05  -1.8180358248577248e+06
   3.7796235618977167e+05  -1.8180105320777276e+06
   3.7787155643983046e+05  -1.8179464122463185e+06
   3.7778582926575042e+05  -1.8178636685014958e+06
   3.7770002780492662e+05  -1.8177824876425844e+06
   3.7761178278844920e+05  -1.8177085937901195e+06
   3.7751789089288010e+05  -1.8176548146633636e+06
   3.7741791837319173e+05  -1.8176364798491600e+06
   3.7732365408873698e+05  -1.8176862436333026e+06
   3.7732356450186879e+05  -1.8179255037673607e+06
   3.7738767018906499e+05  -1.8180866208928085e+06
   3.7745642172278301e+05  -1.8182298445324805e+06
   3.7752517395970027e+05  -1.8183730200647020e+06
   3.7758837613456853e+05  -1.8185420739117027e+06
   3.7755573717147607e+05  -1.8187317617238618e+06
   3.7744653464208567e+05  -1.8187271195391002e+06
   3.7734878822220385e+05  -1.8186912056397507e+06
   3.7725665539043373e+05  -1.8186311973884683e+06
   3.7716816287699115e+05  -1.8185588430766468e+06
   3.7708179490329156e+05  -1.8184786322880490e+06
   3.7699658587693708e+05  -1.8183942682002103e+06
   3.7691206006757956e+05  -1.8183081954958662e+06
   3.7682624109625415e+05  -1.8182254095783574e+06
   3.7673818190219213e+05  -1.8181523308782536e+06
   3.7664615067270229e+05  -1.8180907206211754e+06
   3.7655064443222550e+05  -1.8180440253563628e+06
   3.7645123318022507e+05  -1.8180127639355252e+06
   3.7634681348851376e+05  -1.8179970812702130e+06
   3.7624708221800299e+05  -1.8180041629019303e+06
   3.7614346100815688e+05  -1.8180296966311657e+06
   3.7605083358402911e+05  -1.8180883560205556e+06
   3.7598069908601220e+05  -1.8182294864590170e+06
   3.7600491762133088e+05  -1.8184702783605924e+06
   3.7606377517310472e+05  -1.8186485222895755e+06
   3.7610581611913198e+05  -1.8188750408185613e+06
   3.7604510749116674e+05  -1.8190490697725324e+06
   3.7596009369132639e+05  -1.8191351735093282e+06
   3.7586956660981133e+05  -1.8191985540069118e+06
   3.7577572487826919e+05  -1.8192538835151521e+06
   3.7568417975580483e+05  -1.8193137801077904e+06
   3.7559627188676322e+05  -1.8193896855296476e+06
   3.7555993149248528e+05  -1.8195660799341057e+06
   3.7564306513217231e+05  -1.8196639888026395e+06
   3.7573889891524165e+05  -1.8197059962866595e+06
   3.7584697280594509e+05  -1.8197208186812603e+06
   3.7595593285584188e+05  -1.8197152747799256e+06
   3.7605889533707418e+05  -1.8196933283335934e+06
   3.7615659545159788e+05  -1.8196537061835015e+06
   3.7624966478200461e+05  -1.8195961387245301e+06
   3.7633625851845671e+05  -1.8195168110822162e+06
   3.7641524753856304e+05  -1.8194102165768088e+06
   3.7648643914026942e+05  -1.8192761159480345e+06
   3.7655442677662370e+05  -1.8191306400850010e+06
   3.7663026626560179e+05  -1.8190125762844817e+06
   3.7672635644558439e+05  -1.8189730849843801e+06
   3.7681206742799492e+05  -1.8190582363601243e+06
   3.7679632773722324e+05  -1.8192845491531035e+06
   3.7673189300516155e+05  -1.8194435828170355e+06
   3.7666037838812225e+05  -1.8195767478406429e+06
   3.7658988551414502e+05  -1.8197133070083633e+06
   3.7652270042965858e+05  -1.8198620123715140e+06
   3.7646488271634659e+05  -1.8200440634853989e+06
   3.7643677207765460e+05  -1.8203309728731699e+06
   3.7646548209220753e+05  -1.8206144936712075e+06
   3.7651700514032936e+05  -1.8208186269597914e+06
   3.7656952856412961e+05  -1.8210201063505681e+06
   3.7662908884919359e+05  -1.8211958800758736e+06
   3.7669176457974827e+05  -1.8213603715288166e+06
   3.7675744657447271e+05  -1.8215201923060985e+06
   3.7673651965473773e+05  -1.8217207135329880e+06
   3.7665003752994543e+05  -1.8218015583160885e+06
   3.7656111988370144e+05  -1.8218724563937162e+06
   3.7647806658649037e+05  -1.8219632404244640e+06
   3.7641401482329442e+05  -1.8221259824534729e+06
   3.7643755670138291e+05  -1.8223454966976987e+06
   3.7650097171124630e+05  -1.8225090533599500e+06
   3.7655435242428374e+05  -1.8227103227333731e+06
   3.7654294855972246e+05  -1.8229837655336990e+06
   3.7648540709521086e+05  -1.8231680230245451e+06
   3.7642828935930278e+05  -1.8233537326200916e+06
   3.7645762138752395e+05  -1.8235484659820702e+06
   3.7655271736455255e+05  -1.8236023262339116e+06
   3.7665633704155823e+05  -1.8236110919592092e+06
   3.7674546269465639e+05  -1.8236032052488350e+06
   3.7684979720203701e+05  -1.8235826933967422e+06
   3.7695553902355843e+05  -1.8235666449366845e+06
   3.7706434617766499e+05  -1.8235603171258317e+06
   3.7717348643815750e+05  -1.8235682764967917e+06
   3.7727364527062897e+05  -1.8236003833981720e+06
   3.7736886530476349e+05  -1.8236487403757861e+06
   3.7745859886680602e+05  -1.8237175162066452e+06
   3.7754165054261504e+05  -1.8238099536553500e+06
   3.7761865724307444e+05  -1.8239232140476292e+06
   3.7769446873919852e+05  -1.8240411666574217e+06
   3.7776887639391038e+05  -1.8241635344731552e+06
   3.7784503792479652e+05  -1.8242803521531937e+06
   3.7792147042933013e+05  -1.8243955184217421e+06
   3.7799889092997718e+05  -1.8245077970747401e+06
   3.7807618298648909e+05  -1.8246203673951777e+06
   3.7815333493268327e+05  -1.8247332957205942e+06
   3.7823272026472265e+05  -1.8248383508058432e+06
   3.7831070720032271e+05  -1.8249483178382923e+06
   3.7839461476146337e+05  -1.8250368903461138e+06
   3.7848290804352117e+05  -1.8251095943956627e+06
   3.7857754030827282e+05  -1.8251605070092515e+06
   3.7867620285644510e+05  -1.8251969567792548e+06
   3.7877679536275042e+05  -1.8252280571355817e+06
   3.7887637166201964e+05  -1.8252589636014428e+06
   3.7897246021658106e+05  -1.8253059311087718e+06
   3.7905127703426551e+05  -1.8254179963585832e+06
   3.7903241758277849e+05  -1.8256396414176889e+06
   3.7896068540574919e+05  -1.8257728908182243e+06
   3.7888366351733025e+05  -1.8258864601470069e+06
   3.7880527815981483e+05  -1.8259949156881557e+06
   3.7873042028057162e+05  -1.8261162229069509e+06
   3.7867551224443282e+05  -1.8263067373197433e+06
   3.7872812127869466e+05  -1.8265015356270052e+06
   3.7881300399598246e+05  -1.8265869177685769e+06
   3.7890602582453768e+05  -1.8266418868751747e+06
   3.7900460285501962e+05  -1.8266811443128805e+06
   3.7910440087913978e+05  -1.8267124953082935e+06
   3.7920441335736017e+05  -1.8267421292231358e+06
   3.7930583898301778e+05  -1.8267725908153611e+06
   3.7940448096375563e+05  -1.8268077533445607e+06
   3.7950081099962757e+05  -1.8268488736088204e+06
   3.7959699384590593e+05  -1.8268975381269336e+06
   3.7968836011495307e+05  -1.8269569291939219e+06
   3.7977731004449842e+05  -1.8270286751131837e+06
   3.7986246810953983e+05  -1.8271139163476995e+06
   3.7994154020537517e+05  -1.8272196303005521e+06
   3.8000755665642378e+05  -1.8273735769900752e+06
   3.8001335162922088e+05  -1.8276033666952630e+06
   3.7994686232372536e+05  -1.8277574615968238e+06
   3.7987040921364760e+05  -1.8278729808621923e+06
   3.7979209369937173e+05  -1.8279820021528641e+06
   3.7971667466667388e+05  -1.8281007056848779e+06
   3.7966667595475906e+05  -1.8282858164973876e+06
   3.7974028751386149e+05  -1.8284053638427071e+06
   3.7982884682805021e+05  -1.8284792883430193e+06
   3.7991615044707013e+05  -1.8285542346191241e+06
   3.7999785888579825e+05  -1.8286514280376071e+06
   3.8005578497461608e+05  -1.8288189143788596e+06
   3.8002938366442884e+05  -1.8290562730105976e+06
   3.7995816974238155e+05  -1.8291903024228660e+06
   3.7985940521940310e+05  -1.8292353021630584e+06
   3.7976676025857450e+05  -1.8291698835965819e+06
   3.7969115513143875e+05  -1.8290513553975683e+06
   3.7961810110794590e+05  -1.8289241058234239e+06
   3.7953743364656344e+05  -1.8288223038862350e+06
   3.7944995440724224e+05  -1.8287471088511120e+06
   3.7936175881116872e+05  -1.8286751278046775e+06
   3.7926377892756328e+05  -1.8286349054662557e+06
   3.7916383328396833e+05  -1.8286084474261610e+06
   3.7905419353606849e+05  -1.8285950176350691e+06
   3.7895968736807705e+05  -1.8285971659515298e+06
   3.7885052630514535e+05  -1.8286032659264894e+06
   3.7874961624276172e+05  -1.8286152173196238e+06
   3.7865301765192806e+05  -1.8286293963761535e+06
   3.7855095500799996e+05  -1.8286490284115644e+06
   3.7844848250150972e+05  -1.8286725930191055e+06
   3.7834647291172261e+05  -1.8286998848005864e+06
   3.7824701525184046e+05  -1.8287321826813743e+06
   3.7814952493036800e+05  -1.8287721726683087e+06
   3.7805432393749006e+05  -1.8288231656593133e+06
   3.7796864422532340e+05  -1.8289097307351667e+06
   3.7798051180698216e+05  -1.8291058941252881e+06
   3.7805985320256714e+05  -1.8292123854169978e+06
   3.7814593193594756e+05  -1.8292933025598766e+06
   3.7823467776389275e+05  -1.8293654004243365e+06
   3.7832414888648159e+05  -1.8294339711151728e+06
   3.7841394018486416e+05  -1.8295020841090127e+06
   3.7850316015937016e+05  -1.8295725202418661e+06
   3.7859114730651944e+05  -1.8296468938338435e+06
   3.7867676330597571e+05  -1.8297289850317126e+06
   3.7875952793638047e+05  -1.8298223437573318e+06
   3.7883586086117598e+05  -1.8299381330832287e+06
   3.7888549923185701e+05  -1.8301264557943095e+06
   3.7882087401976931e+05  -1.8302783115370045e+06
   3.7872595421328169e+05  -1.8303301375833456e+06
   3.7862410278525174e+05  -1.8303441848721239e+06
   3.7852262065887236e+05  -1.8303372986190801e+06
   3.7841596060028428e+05  -1.8303180437209806e+06
   3.7831580101674324e+05  -1.8302918400401417e+06
   3.7821539839787362e+05  -1.8302616825557423e+06
   3.7811439619143558e+05  -1.8302300570156511e+06
   3.7801516023302433e+05  -1.8301974051324525e+06
   3.7791537128423637e+05  -1.8301682666064622e+06
   3.7781338163550728e+05  -1.8301443376598759e+06
   3.7770533817180031e+05  -1.8301302724479290e+06
   3.7759716104009695e+05  -1.8301428500232906e+06
   3.7750332917488751e+05  -1.8301941658043000e+06
   3.7743002898019226e+05  -1.8303229243343247e+06
   3.7743659949494764e+05  -1.8305965508954076e+06
   3.7750056349548465e+05  -1.8307570725117929e+06
   3.7757205811230687e+05  -1.8308901309793792e+06
   3.7764737064051116e+05  -1.8310093866944169e+06
   3.7772106409512419e+05  -1.8311349774544481e+06
   3.7778601291584643e+05  -1.8312916623764518e+06
   3.7783443763788330e+05  -1.8315078686262211e+06
   3.7786004892677191e+05  -1.8318016535560668e+06
   3.7790004220637679e+05  -1.8319994375504297e+06
   3.7797027801320178e+05  -1.8321388391592435e+06
   3.7805043374493974e+05  -1.8322411228924873e+06
   3.7813455081551307e+05  -1.8323290650319704e+06
   3.7821917011312058e+05  -1.8324151551184636e+06
   3.7830154229137453e+05  -1.8325102377454613e+06
   3.7833201296377386e+05  -1.8326903004826210e+06
   3.7824792368643155e+05  -1.8327853431572567e+06
   3.7815271525283850e+05  -1.8328311140419424e+06
   3.7805263013638248e+05  -1.8328631586213661e+06
   3.7795169357261853e+05  -1.8328917108018904e+06
   3.7785124928657169e+05  -1.8329219841450143e+06
   3.7775225272497616e+05  -1.8329590588193473e+06
   3.7765704206554644e+05  -1.8330061575401651e+06
   3.7756607259817881e+05  -1.8330701700450156e+06
   3.7748369087253395e+05  -1.8331640272216771e+06
   3.7744633791525965e+05  -1.8333555669213976e+06
   3.7752072614080599e+05  -1.8334816735448220e+06
   3.7761417169176944e+05  -1.8335359023052901e+06
   3.7771467838703509e+05  -1.8335684557912310e+06
   3.7781682194055495e+05  -1.8335912428275072e+06
   3.7791862497687468e+05  -1.8336081715552183e+06
   3.7802425042995490e+05  -1.8336253986142583e+06
   3.7812780280871707e+05  -1.8336476922374074e+06
   3.7822789658492466e+05  -1.8336761745355485e+06
   3.7832476315478561e+05  -1.8337180352039610e+06
   3.7841827473844634e+05  -1.8337726287515741e+06
   3.7850867878582055e+05  -1.8338391918248408e+06
   3.7859693238873954e+05  -1.8339129018972516e+06
   3.7868573870451649e+05  -1.8339836811365723e+06
   3.7877569637048192e+05  -1.8340503350755053e+06
   3.7886801259228634e+05  -1.8341091034084391e+06
   3.7896093113382021e+05  -1.8341657052311907e+06
   3.7905433618217119e+05  -1.8342222282317816e+06
   3.7914558896671777e+05  -1.8342847871276627e+06
   3.7923215586426196e+05  -1.8343692623589549e+06
   3.7922211827473476e+05  -1.8345212670525082e+06
   3.7912511350126693e+05  -1.8345625624907159e+06
   3.7902290656505554e+05  -1.8345868802452718e+06
   3.7892217566785024e+05  -1.8346175048489531e+06
   3.7884050649869919e+05  -1.8347142974742507e+06
   3.7889855765422917e+05  -1.8348629616742067e+06
   3.7898826880816330e+05  -1.8349320350837188e+06
   3.7908140767739085e+05  -1.8349847387203239e+06
   3.7917741763362999e+05  -1.8350319060712794e+06
   3.7927386221004167e+05  -1.8350744040683331e+06
   3.7937197142953909e+05  -1.8351167450261423e+06
   3.7946731167239655e+05  -1.8351603722944467e+06
   3.7956501787230966e+05  -1.8352046206731191e+06
   3.7965977647693304e+05  -1.8352529787390504e+06
   3.7975389688482397e+05  -1.8353045273671676e+06
   3.7984605626377027e+05  -1.8353642051643662e+06
   3.7993649238652998e+05  -1.8354301186701150e+06
   3.8002230907503451e+05  -1.8355121578238534e+06
   3.8010398505336174e+05  -1.8356091201561023e+06
   3.8018010732506856e+05  -1.8357258681690479e+06
   3.8024937645741389e+05  -1.8358669162543926e+06
   3.8031409682250203e+05  -1.8360240258901739e+06
   3.8038383449678001e+05  -1.8361634629220653e+06
   3.8046332958299888e+05  -1.8362686140205234e+06
   3.8055270477358613e+05  -1.8363379189830420e+06
   3.8065252185313066e+05  -1.8363635874621903e+06
   3.8074814443509292e+05  -1.8363224246593919e+06
   3.8082874237140967e+05  -1.8362213228793091e+06
   3.8089809702475724e+05  -1.8360807086660920e+06
   3.8096701273553382e+05  -1.8359381950172188e+06
   3.8104129319071554e+05  -1.8358149367156280e+06
   3.8112511592967849e+05  -1.8357270200984308e+06
   3.8122423281659617e+05  -1.8356872755086513e+06
   3.8131942336100567e+05  -1.8357049890507888e+06
   3.8140682641835994e+05  -1.8357831529544676e+06
   3.8147614849951660e+05  -1.8359243047548593e+06
   3.8150587299714872e+05  -1.8361676795790566e+06
   3.8145354530721513e+05  -1.8363733871681748e+06
   3.8137812811583909e+05  -1.8364926567308435e+06
   3.8129313536477863e+05  -1.8365784930790928e+06
   3.8120534066759469e+05  -1.8366514558350663e+06
   3.8111514841155423e+05  -1.8367203557450629e+06
   3.8102952115246578e+05  -1.8368011645191899e+06
   3.8099030138713174e+05  -1.8369682779578611e+06
   3.8107775399213936e+05  -1.8370507165519125e+06
   3.8118255106183502e+05  -1.8370582455761768e+06
   3.8128290282054729e+05  -1.8370323017133188e+06
   3.8137976174582070e+05  -1.8369910145960276e+06
   3.8147648821289960e+05  -1.8369483209616446e+06
   3.8157742287738709e+05  -1.8369180883701511e+06
   3.8168678462701355e+05  -1.8369155614624801e+06
   3.8178772346494603e+05  -1.8369484684539372e+06
   3.8187434166228340e+05  -1.8370276985968009e+06
   3.8193720466508548e+05  -1.8371961939946688e+06
   3.8191001670913387e+05  -1.8374580502389274e+06
   3.8184231900789798e+05  -1.8376037373157803e+06
   3.8176322770504723e+05  -1.8377100444916172e+06
   3.8167826123120973e+05  -1.8377944128713103e+06
   3.8158738976641308e+05  -1.8378617282807324e+06
   3.8149992863696528e+05  -1.8379404231134297e+06
   3.8150047773156094e+05  -1.8381065313310262e+06
   3.8157268803672004e+05  -1.8382422909868488e+06
   3.8166303636446380e+05  -1.8383035034083067e+06
   3.8177091966327658e+05  -1.8383139875245919e+06
   3.8186599743614066e+05  -1.8382634855612947e+06
   3.8194881267034297e+05  -1.8381695409896893e+06
   3.8202571911453869e+05  -1.8380556957948920e+06
   3.8210496484804043e+05  -1.8379502183231344e+06
   3.8219120967904897e+05  -1.8378711794951987e+06
   3.8228887502504856e+05  -1.8378433605428878e+06
   3.8238832606804807e+05  -1.8378686399753192e+06
   3.8247889985436545e+05  -1.8379321975787964e+06
   3.8255929851850669e+05  -1.8380331421349766e+06
   3.8263419008271035e+05  -1.8381539294151750e+06
   3.8270687311323086e+05  -1.8382828887902913e+06
   3.8277340642485337e+05  -1.8384338296474256e+06
   3.8283534066008579e+05  -1.8386012678770346e+06
   3.8289059806034237e+05  -1.8387923205433369e+06
   3.8293106594990764e+05  -1.8390336324293744e+06
   3.8294431683847564e+05  -1.8393075937855905e+06
   3.8296627861373423e+05  -1.8395404319689695e+06
   3.8304067010461562e+05  -1.8396660278333153e+06
   3.8313955514720135e+05  -1.8397099867673959e+06
   3.8322661018323351e+05  -1.8397124208554628e+06
   3.8332742024503654e+05  -1.8396906191305441e+06
   3.8342867913477664e+05  -1.8396631626180124e+06
   3.8353156514406233e+05  -1.8396411731210086e+06
   3.8362907192013704e+05  -1.8396538137609935e+06
   3.8368674694595201e+05  -1.8397803891214463e+06
   3.8362748654219072e+05  -1.8399575160707692e+06
   3.8356147910645022e+05  -1.8401104073896415e+06
   3.8351805310649308e+05  -1.8403375697195060e+06
   3.8354367212442891e+05  -1.8406154645063239e+06
   3.8351350175697322e+05  -1.8408139334495864e+06
   3.8342065079537441e+05  -1.8408745930003251e+06
   3.8331927744079137e+05  -1.8409008722693499e+06
   3.8321740645086538e+05  -1.8409159486205149e+06
   3.8311215285897959e+05  -1.8409365317008132e+06
   3.8301696871294035e+05  -1.8409862900566445e+06
   3.8294214177358482e+05  -1.8411100432986401e+06
   3.8297398757117725e+05  -1.8413340469595583e+06
   3.8304467145198787e+05  -1.8414697502468470e+06
   3.8311884491485142e+05  -1.8415930685241937e+06
   3.8319102769503091e+05  -1.8417241063650490e+06
   3.8325789916788595e+05  -1.8418737564224564e+06
   3.8330884222476312e+05  -1.8420825972758925e+06
   3.8330282263268868e+05  -1.8423788725731473e+06
   3.8324864027797029e+05  -1.8425727592216567e+06
   3.8318369207320252e+05  -1.8427292403379155e+06
   3.8311516919674707e+05  -1.8428728996525744e+06
   3.8304680565824342e+05  -1.8430173956548285e+06
   3.8297940264704218e+05  -1.8431650542856278e+06
   3.8292257485523244e+05  -1.8433519632624453e+06
   3.8292659624419664e+05  -1.8436237436776275e+06
   3.8298545299920713e+05  -1.8438023496159068e+06
   3.8305408771739306e+05  -1.8439456777793395e+06
   3.8312816442016303e+05  -1.8440697573891259e+06
   3.8320039467303804e+05  -1.8442006526382538e+06
   3.8325136308430741e+05  -1.8443796484599747e+06
   3.8321070174803457e+05  -1.8445534402020739e+06
   3.8312727454335213e+05  -1.8446446541834807e+06
   3.8303628129881393e+05  -1.8447067208202758e+06
   3.8294009433547675e+05  -1.8447529535605395e+06
   3.8284164557236392e+05  -1.8447894018745397e+06
   3.8274066173944756e+05  -1.8448183661501349e+06
   3.8263973010175960e+05  -1.8448425338798426e+06
   3.8253386808800581e+05  -1.8448612056918724e+06
   3.8243081124743592e+05  -1.8448766942061658e+06
   3.8232272553088557e+05  -1.8448866941616109e+06
   3.8221987039144320e+05  -1.8448942500531275e+06
   3.8211092539479147e+05  -1.8448959564226496e+06
   3.8200261343480734e+05  -1.8448912275951004e+06
   3.8191387921451480e+05  -1.8448870231662160e+06
   3.8180459261232417e+05  -1.8448763844941424e+06
   3.8169918921742600e+05  -1.8448647566976978e+06
   3.8159360291551898e+05  -1.8448564895329706e+06
   3.8148806119464542e+05  -1.8448659406855330e+06
   3.8139680764244666e+05  -1.8449278509872125e+06
   3.8132626427057129e+05  -1.8450650445685224e+06
   3.8129013648651115e+05  -1.8452923589414838e+06
   3.8128719312930171e+05  -1.8455356553016286e+06
   3.8132488240082137e+05  -1.8457754967583606e+06
   3.8138885509042343e+05  -1.8459352584893911e+06
   3.8146733269474003e+05  -1.8460439255377706e+06
   3.8155551892603241e+05  -1.8461175984752497e+06
   3.8164716538038815e+05  -1.8461771128900445e+06
   3.8173973950954841e+05  -1.8462359964727368e+06
   3.8182628902876365e+05  -1.8463155950477538e+06
   3.8188291999876243e+05  -1.8464913594367234e+06
   3.8185681312533119e+05  -1.8467690828348028e+06
   3.8180456324723677e+05  -1.8469700751723291e+06
   3.8174432340048632e+05  -1.8471431547991042e+06
   3.8167725648695027e+05  -1.8472917998930069e+06
   3.8159598504666623e+05  -1.8473899995293270e+06
   3.8150406175743305e+05  -1.8474516573965000e+06
   3.8140556550469651e+05  -1.8474905636939136e+06
   3.8130431460663595e+05  -1.8475092071691991e+06
   3.8120099550112447e+05  -1.8474971907807093e+06
   3.8110594965755061e+05  -1.8474443696419159e+06
   3.8104682724705455e+05  -1.8472630842077367e+06
   3.8106315432108426e+05  -1.8469830044008417e+06
   3.8109263499524846e+05  -1.8467471509307057e+06
   3.8112054595616111e+05  -1.8464974696395181e+06
   3.8113347123277764e+05  -1.8462208969932368e+06
   3.8111049316573667e+05  -1.8459649270690568e+06
   3.8104879301605280e+05  -1.8457945224357892e+06
   3.8096767549937841e+05  -1.8456963834699953e+06
   3.8086651252064214e+05  -1.8456623751024606e+06
   3.8076310255885782e+05  -1.8456880982233775e+06
   3.8067594161023834e+05  -1.8457652169409797e+06
   3.8059788535903674e+05  -1.8458749275468120e+06
   3.8052420253732800e+05  -1.8460007707472059e+06
   3.8045014239644556e+05  -1.8461247208643074e+06
   3.8037582938601635e+05  -1.8462477048948486e+06
   3.8030251174314995e+05  -1.8463745232653576e+06
   3.8023322870677791e+05  -1.8465155677812626e+06
   3.8015753712485766e+05  -1.8466337253380590e+06
   3.8008193184249225e+05  -1.8467519688388712e+06
   3.8000731829679338e+05  -1.8468742218398058e+06
   3.7993806690042024e+05  -1.8470152360884666e+06
   3.7988654461525526e+05  -1.8472187935244192e+06
   3.7993106700864475e+05  -1.8474324957695415e+06
   3.8000106475888140e+05  -1.8475706701983393e+06
   3.8006151118454390e+05  -1.8477466516169924e+06
   3.8003232677851274e+05  -1.8479974534691114e+06
   3.7997006782429066e+05  -1.8481639471440562e+06
   3.7990347433339915e+05  -1.8483146195117566e+06
   3.7983571294591425e+05  -1.8484608709241494e+06
   3.7976482947776205e+05  -1.8485962532750438e+06
   3.7969104906033439e+05  -1.8487214160180716e+06
   3.7961300344604906e+05  -1.8488309272429191e+06
   3.7953191896611068e+05  -1.8489276236701945e+06
