   4.1562199700340338e+05   5.6728007099648565e+06
   4.1567967553772585e+05   5.6726587413620278e+06
   4.1574824955792661e+05   5.6725247578544859e+06
   4.1582866558644822e+05   5.6724023128337320e+06
   4.1591052384879213e+05   5.6722814561498128e+06
   4.1599800789835514e+05   5.6721662165496191e+06
   4.1609081476894562e+05   5.6720563129409570e+06
   4.1618552908701316e+05   5.6719480984030748e+06
   4.1629209349867771e+05   5.6718517607876193e+06
   4.1640165757408430e+05   5.6717584860945558e+06
   4.1651336234700651e+05   5.6716670993009256e+06
   4.1662543971478898e+05   5.6715762189526875e+06
   4.1673666165397636e+05   5.6714844886470363e+06
   4.1684600566572527e+05   5.6713908473482346e+06
   4.1695217413618945e+05   5.6712942376055466e+06
   4.1705390301468031e+05   5.6711928783041844e+06
   4.1714873767443898e+05   5.6710850481761117e+06
   4.1723632770357543e+05   5.6709699426211435e+06
   4.1731944989541610e+05   5.6708502168039847e+06
   4.1739989102743211e+05   5.6707280251209503e+06
   4.1748499318087602e+05   5.6706103909781147e+06
   4.1758996207718743e+05   5.6705124402856557e+06
   4.1771783994846442e+05   5.6704372313120021e+06
   4.1787170255484630e+05   5.6703875811191704e+06
   4.1804485333585687e+05   5.6703571974159358e+06
   4.1821754357459169e+05   5.6703264322688458e+06
   4.1836842604166648e+05   5.6702742975846119e+06
   4.1849272697576956e+05   5.6701955687596072e+06
   4.1859944520106830e+05   5.6700991551484000e+06
   4.1869022487898613e+05   5.6699872901828205e+06
   4.1876645175612980e+05   5.6698602600542419e+06
   4.1883434337588953e+05   5.6697264746588450e+06
   4.1889626445061056e+05   5.6695858060666341e+06
   4.1895509619823017e+05   5.6694419740071753e+06
   4.1901433873519959e+05   5.6692984928532178e+06
   4.1907768979058933e+05   5.6691592151219603e+06
   4.1915427117200469e+05   5.6690332753903158e+06
   4.1925028429876070e+05   5.6689265094310055e+06
   4.1936315878480114e+05   5.6688363620824646e+06
   4.1949080264893436e+05   5.6687606522829579e+06
   4.1962600335959479e+05   5.6686934327518651e+06
   4.1976991753195674e+05   5.6686329339521229e+06
   4.1991736436816363e+05   5.6685772500821548e+06
   4.2006748732042598e+05   5.6685250515172677e+06
   4.2022192006979114e+05   5.6684758366039023e+06
   4.2037671787634335e+05   5.6684279794653533e+06
   4.2053469969327154e+05   5.6683810841751415e+06
   4.2068960325125227e+05   5.6683329939618008e+06
   4.2084133938335028e+05   5.6682816909366855e+06
   4.2098763407095696e+05   5.6682252730283756e+06
   4.2112500435641542e+05   5.6681591779312259e+06
   4.2124823056403571e+05   5.6680790897514494e+06
   4.2135705343056744e+05   5.6679848684461070e+06
   4.2145036035960179e+05   5.6678753703280501e+06
   4.2152422372230177e+05   5.6677468463234641e+06
   4.2158530547346716e+05   5.6676050300160721e+06
   4.2164003573105665e+05   5.6674574512876272e+06
   4.2169437696763640e+05   5.6673088663974646e+06
   4.2175256564765261e+05   5.6671659023303017e+06
   4.2181513264956116e+05   5.6670248419623366e+06
   4.2188456872204575e+05   5.6668920189201301e+06
   4.2196241442876676e+05   5.6667671105968077e+06
   4.2205024879300594e+05   5.6666521265695291e+06
   4.2214777970368910e+05   5.6665469690835876e+06
   4.2225065355460864e+05   5.6664467637647837e+06
   4.2236438901571999e+05   5.6663576508901091e+06
   4.2249030010631669e+05   5.6662803359059403e+06
   4.2262880129513575e+05   5.6662155015411461e+06
   4.2277623277895717e+05   5.6661600087122843e+06
   4.2292961990625353e+05   5.6661099620198477e+06
   4.2307113374420634e+05   5.6660482908962499e+06
   4.2318575736583292e+05   5.6659598726819390e+06
   4.2327615787108918e+05   5.6658474849794246e+06
   4.2334608226620691e+05   5.6657151346273562e+06
   4.2339777385338466e+05   5.6655664841078734e+06
   4.2343729306043562e+05   5.6654028462865893e+06
   4.2343529691757745e+05   5.6652336968552889e+06
   4.2341697711414465e+05   5.6650467127477974e+06
   4.2341243968571012e+05   5.6649020252892496e+06
   4.2344692809196573e+05   5.6647348314747093e+06
   4.2351914945193531e+05   5.6646043094837768e+06
   4.2361835447642842e+05   5.6645007290296489e+06
   4.2374054296674847e+05   5.6644196185302082e+06
   4.2387284697729495e+05   5.6643491481007505e+06
   4.2401030114735622e+05   5.6642833063866794e+06
   4.2414837236810621e+05   5.6642182557682283e+06
   4.2428032234063157e+05   5.6641472819828475e+06
   4.2440204382644821e+05   5.6640653906941516e+06
   4.2450490273978142e+05   5.6639658776170174e+06
   4.2458695208445832e+05   5.6638447654286874e+06
   4.2464578756700101e+05   5.6637018738093777e+06
   4.2469966373177140e+05   5.6635528740140777e+06
   4.2476827555729862e+05   5.6634187901729997e+06
   4.2485267196763982e+05   5.6633004104324961e+06
   4.2495902771166334e+05   5.6632039689505724e+06
   4.2507561285457335e+05   5.6631171673944239e+06
   4.2520136413015204e+05   5.6630399751391066e+06
   4.2533320055936894e+05   5.6629689326019483e+06
   4.2547088502636994e+05   5.6629030526070623e+06
   4.2561045702709217e+05   5.6628396609475017e+06
   4.2575529019412008e+05   5.6627811933202855e+06
   4.2590171472301154e+05   5.6627248962820210e+06
   4.2605067229307425e+05   5.6626700800403813e+06
   4.2619309173116746e+05   5.6626090822934061e+06
   4.2633440122712054e+05   5.6625473061806681e+06
   4.2648704439473053e+05   5.6624968301835498e+06
   4.2662799868797517e+05   5.6624343404220492e+06
   4.2676860272349807e+05   5.6623721952809738e+06
   4.2691325951611687e+05   5.6623129196964484e+06
   4.2706501477076730e+05   5.6622619972274471e+06
   4.2723728776152770e+05   5.6622342119557485e+06
   4.2738672370014200e+05   5.6622377869114596e+06
   4.2756510249143874e+05   5.6622675145024695e+06
   4.2775237650083838e+05   5.6622672235736093e+06
   4.2789174502876325e+05   5.6622030661486359e+06
   4.2800661778417783e+05   5.6621150542141059e+06
   4.2810864360520168e+05   5.6620127561774645e+06
   4.2818936429930897e+05   5.6619113871702710e+06
   4.2825141434651299e+05   5.6617857108035991e+06
   4.2828779654835374e+05   5.6616162937673610e+06
   4.2830429286674573e+05   5.6614587311304305e+06
   4.2833530043145875e+05   5.6612947787153479e+06
   4.2839863192609447e+05   5.6611555244523790e+06
   4.2849605724720989e+05   5.6610501632798491e+06
   4.2861859038552985e+05   5.6609698506317865e+06
   4.2876023516506125e+05   5.6609077541951630e+06
   4.2891673467767221e+05   5.6608614464677935e+06
   4.2908912177462631e+05   5.6608314568668688e+06
   4.2928684299045225e+05   5.6608179329589689e+06
   4.2949073478723428e+05   5.6608202496853927e+06
   4.2969295415652782e+05   5.6608220324280513e+06
   4.2987091237293195e+05   5.6607976379361525e+06
   4.3002878491967515e+05   5.6607518341147583e+06
   4.3015907987504080e+05   5.6606797775738407e+06
   4.3026187083997013e+05   5.6605787332730768e+06
   4.3035697226364654e+05   5.6604710935248742e+06
   4.3045313153304154e+05   5.6603640775287487e+06
   4.3053655490967009e+05   5.6602449630395984e+06
   4.3059738989185012e+05   5.6601032140939916e+06
   4.3062573248538416e+05   5.6599254787279731e+06
   4.3060793640909542e+05   5.6597367427099701e+06
   4.3057745848000038e+05   5.6595669671799140e+06
   4.3059966826464789e+05   5.6593969764891108e+06
   4.3066939620082977e+05   5.6592639290033104e+06
   4.3075594129439915e+05   5.6591473734657560e+06
   4.3084880407568958e+05   5.6590374666799195e+06
   4.3094445708070043e+05   5.6589303928698273e+06
   4.3104064820336358e+05   5.6588237815031204e+06
   4.3113790080150758e+05   5.6587179929806469e+06
   4.3123414322592033e+05   5.6586115593102304e+06
   4.3133024359708623e+05   5.6585048098223191e+06
   4.3142428440506733e+05   5.6583959235863164e+06
   4.3151639733304392e+05   5.6582855734105865e+06
   4.3160014362718648e+05   5.6581662833767543e+06
   4.3168494676295453e+05   5.6580484788287980e+06
   4.3176605582568259e+05   5.6579266931488076e+06
   4.3184196860320470e+05   5.6578008340590503e+06
   4.3191189938518842e+05   5.6576672342116619e+06
   4.3198023400913150e+05   5.6575331984763518e+06
   4.3203979791010922e+05   5.6573904198722159e+06
   4.3209308817078063e+05   5.6572410919404598e+06
   4.3214111139353184e+05   5.6570866944019878e+06
   4.3218925560691295e+05   5.6569324962793905e+06
   4.3223024862926005e+05   5.6567715604911586e+06
   4.3226315790442761e+05   5.6566021449328428e+06
   4.3228691608426120e+05   5.6564226779091433e+06
   4.3230234353709454e+05   5.6562394883694518e+06
   4.3230398200830352e+05   5.6560680780136511e+06
   4.3229333050076361e+05   5.6558706772324983e+06
   4.3227796395864227e+05   5.6556924378550928e+06
   4.3226638715604984e+05   5.6555272413204173e+06
   4.3226161239219201e+05   5.6553511580813592e+06
   4.3228211639883020e+05   5.6551690709232343e+06
   4.3233609517836553e+05   5.6550211554748006e+06
   4.3241322451655945e+05   5.6548956717701638e+06
   4.3251254877450084e+05   5.6547918359628180e+06
   4.3262025796609285e+05   5.6546968377085980e+06
   4.3273143364442565e+05   5.6546049520204393e+06
   4.3284077533771365e+05   5.6545114342418294e+06
   4.3294571168302873e+05   5.6544134574070880e+06
   4.3304302920266183e+05   5.6543078462859644e+06
   4.3312963750912715e+05   5.6541916272084182e+06
   4.3320687766034505e+05   5.6540663684246223e+06
   4.3327227360897674e+05   5.6539291750413449e+06
   4.3332806635076448e+05   5.6537823217100604e+06
   4.3336600503616530e+05   5.6536176512721311e+06
   4.3339808420615888e+05   5.6534477412579423e+06
   4.3342620859222830e+05   5.6532733829521062e+06
   4.3345257899168518e+05   5.6531059679772239e+06
   4.3347167692055833e+05   5.6529507152514197e+06
   4.3349033683065040e+05   5.6527654445274128e+06
   4.3350336717954208e+05   5.6525697961145258e+06
   4.3351095318379893e+05   5.6524130311210742e+06
   4.3352733081259049e+05   5.6522288827496553e+06
   4.3356183115588187e+05   5.6520601739762006e+06
   4.3361245903237024e+05   5.6519083014037916e+06
   4.3367486107604182e+05   5.6517681612143228e+06
   4.3375303467373340e+05   5.6516440587238576e+06
   4.3384259672538738e+05   5.6515307822644934e+06
   4.3394209126228199e+05   5.6514273203970436e+06
   4.3404702130664245e+05   5.6513293977919649e+06
   4.3415588184906426e+05   5.6512352424190296e+06
   4.3426391136363958e+05   5.6511403760235887e+06
   4.3436224837899237e+05   5.6510358601203617e+06
   4.3443985121943551e+05   5.6509106037668157e+06
   4.3449126509001886e+05   5.6507580649026129e+06
   4.3450643955334439e+05   5.6506263076467309e+06
   4.3449878412621701e+05   5.6504602695083870e+06
   4.3447999983490305e+05   5.6503077230022084e+06
   4.3445249618198199e+05   5.6501332334189340e+06
   4.3442447904193669e+05   5.6499581107861577e+06
   4.3440436132649583e+05   5.6497992649634145e+06
   4.3439470124805649e+05   5.6496152547621112e+06
   4.3441126322354440e+05   5.6494260191126848e+06
   4.3445239686793520e+05   5.6492661543132933e+06
   4.3451342043248151e+05   5.6491250904031070e+06
   4.3458765686147782e+05   5.6489962477578651e+06
   4.3467855186281656e+05   5.6488843796762293e+06
   4.3478473691194010e+05   5.6487875367922522e+06
   4.3490378634443256e+05   5.6487034242610969e+06
   4.3503223808676284e+05   5.6486288694296200e+06
   4.3516164581708488e+05   5.6485552387105012e+06
   4.3527778386578057e+05   5.6484685139568839e+06
   4.3537220620680059e+05   5.6483599868712835e+06
   4.3544380025530013e+05   5.6482289333486464e+06
   4.3549725779099931e+05   5.6480797998640947e+06
   4.3554195138480759e+05   5.6479219888484040e+06
   4.3557902104034356e+05   5.6477579152206890e+06
   4.3560462877376215e+05   5.6475797716116076e+06
   4.3559455938841926e+05   5.6474023824766204e+06
   4.3554803000945627e+05   5.6472468224909408e+06
   4.3548761117004935e+05   5.6471036755291596e+06
   4.3540510270805651e+05   5.6469832583706565e+06
   4.3531075630432594e+05   5.6468749913901314e+06
   4.3520862475866760e+05   5.6467742510642260e+06
   4.3509039766429883e+05   5.6466894524933472e+06
   4.3496971052334487e+05   5.6466070372468214e+06
   4.3485271454050497e+05   5.6465211801825268e+06
   4.3474888834298943e+05   5.6464219347878415e+06
   4.3467276386895881e+05   5.6462952275099084e+06
   4.3463746342861681e+05   5.6461385056793345e+06
   4.3465488032121462e+05   5.6459936635497361e+06
   4.3470895326610369e+05   5.6458434486698490e+06
   4.3478129687227227e+05   5.6457130918675344e+06
   4.3486572954898980e+05   5.6455947348956354e+06
   4.3495827745821170e+05   5.6454843966785651e+06
   4.3504877443482331e+05   5.6453709753358476e+06
   4.3508228001247352e+05   5.6452293850177787e+06
   4.3500447460574500e+05   5.6451047245208872e+06
   4.3489487523920013e+05   5.6450116529291831e+06
   4.3477109664665518e+05   5.6449325991006214e+06
   4.3463636362259736e+05   5.6448631727173552e+06
   4.3449360313895461e+05   5.6448037437550640e+06
   4.3433449429231661e+05   5.6447582525392743e+06
   4.3415506334778358e+05   5.6447370925428476e+06
   4.3397564922229468e+05   5.6447577087980919e+06
   4.3382625780988060e+05   5.6448117391290125e+06
   4.3368588323939109e+05   5.6448743372155894e+06
   4.3353938234984147e+05   5.6449318447629539e+06
   4.3336941742537130e+05   5.6449666215662509e+06
   4.3318198017511319e+05   5.6449493493494280e+06
   4.3303903610409773e+05   5.6448890103596048e+06
   4.3291374600013101e+05   5.6448113878289452e+06
   4.3280345051108161e+05   5.6447185566679053e+06
   4.3271391831141314e+05   5.6446053839380462e+06
   4.3263982633667038e+05   5.6444764541594051e+06
   4.3257797233763535e+05   5.6443360632786993e+06
   4.3252817433085461e+05   5.6441838706511725e+06
   4.3248436662064446e+05   5.6440252404637327e+06
   4.3244190430570132e+05   5.6438658137652436e+06
   4.3240968998221186e+05   5.6436947119943229e+06
   4.3235987312925025e+05   5.6435414750050800e+06
   4.3229734681336704e+05   5.6434023614432551e+06
   4.3222713470803236e+05   5.6432699296196615e+06
   4.3215368545628776e+05   5.6431409105872391e+06
   4.3207909183378232e+05   5.6430130381446872e+06
   4.3200783334701444e+05   5.6428810882568723e+06
   4.3194717691748304e+05   5.6427513821555618e+06
   4.3190106040841952e+05   5.6426170803248975e+06
   4.3185281121901196e+05   5.6424622424509795e+06
   4.3183565562092286e+05   5.6422771374659985e+06
   4.3185923005838779e+05   5.6420983836116046e+06
   4.3191435143891827e+05   5.6419502883656425e+06
   4.3197587510616373e+05   5.6418098917768849e+06
   4.3205901109172223e+05   5.6416903131401520e+06
   4.3215984990807396e+05   5.6415882263373360e+06
   4.3228681224199443e+05   5.6415119648252176e+06
   4.3241668704282522e+05   5.6414390673576035e+06
   4.3257748001991760e+05   5.6413957074014442e+06
   4.3275620812400128e+05   5.6413739924343964e+06
   4.3295328172524984e+05   5.6413784010633938e+06
   4.3314701423077390e+05   5.6413885106764985e+06
   4.3333730439364037e+05   5.6413735632634535e+06
   4.3348327933679055e+05   5.6413172658590879e+06
   4.3359595659582666e+05   5.6412269416120369e+06
   4.3368100572917651e+05   5.6411090586406225e+06
   4.3374548163434298e+05   5.6409708845009739e+06
   4.3380034815769014e+05   5.6408236897487957e+06
   4.3386054099025665e+05   5.6406809921289384e+06
   4.3394223094400618e+05   5.6405603650268437e+06
   4.3406193939987378e+05   5.6404765413770564e+06
   4.3420541436430765e+05   5.6404177240634682e+06
   4.3439070611409796e+05   5.6403930296624778e+06
   4.3456315785815252e+05   5.6403927256576875e+06
   4.3474496506650210e+05   5.6403901584496293e+06
   4.3490439612820384e+05   5.6403944033271102e+06
   4.3509035593071108e+05   5.6404143846767312e+06
   4.3525336717906955e+05   5.6404544722401910e+06
   4.3539705577360699e+05   5.6405138383705411e+06
   4.3552662875003513e+05   5.6405873286298113e+06
   4.3564394539053505e+05   5.6406731626503123e+06
   4.3575500777441333e+05   5.6407649903725665e+06
   4.3586232175870793e+05   5.6408605638510780e+06
   4.3597148510665633e+05   5.6409545953017324e+06
   4.3608596035425161e+05   5.6410426967527792e+06
   4.3621651954465668e+05   5.6411153323734943e+06
   4.3637032500331401e+05   5.6411653461105144e+06
   4.3654054890619166e+05   5.6411822833906841e+06
   4.3666501802418131e+05   5.6411711604138380e+06
   4.3682962606648717e+05   5.6411283259115834e+06
   4.3696999497208075e+05   5.6410672491203146e+06
   4.3709499927408015e+05   5.6409892435363103e+06
   4.3722279580190184e+05   5.6409136353926230e+06
   4.3737812299998908e+05   5.6408640660499306e+06
   4.3757475390575931e+05   5.6408620715255402e+06
   4.3776288281339745e+05   5.6408725411412697e+06
   4.3793698531326302e+05   5.6408465067979656e+06
   4.3809431106526015e+05   5.6408007020400073e+06
   4.3823919536659209e+05   5.6407419554781504e+06
   4.3837713572173222e+05   5.6406770948127694e+06
   4.3850330511781853e+05   5.6406001294763684e+06
   4.3863305870618904e+05   5.6405268359768353e+06
   4.3876860557305778e+05   5.6404591360209277e+06
   4.3891559143348894e+05   5.6404029907218190e+06
   4.3907347469005710e+05   5.6403570573983761e+06
   4.3924074596506433e+05   5.6403215906250142e+06
   4.3940630029683176e+05   5.6402834881304316e+06
   4.3955589047246991e+05   5.6402294187761042e+06
   4.3968538838195364e+05   5.6401558676447039e+06
   4.3979625615743652e+05   5.6400639216267271e+06
   4.3989142256565741e+05   5.6399562611624543e+06
   4.3996797842784604e+05   5.6398300699257646e+06
   4.4003644553275919e+05   5.6396961021109102e+06
   4.4009314136995090e+05   5.6395501880726665e+06
   4.4014615603133815e+05   5.6394008247012319e+06
   4.4020039201587584e+05   5.6392525203341786e+06
   4.4026047849814739e+05   5.6391101679417565e+06
   4.4032895954722381e+05   5.6389758655692227e+06
   4.4040584668028716e+05   5.6388502225393485e+06
   4.4048842963614652e+05   5.6387302732233191e+06
   4.4057749083708582e+05   5.6386164298610566e+06
   4.4067046520541655e+05   5.6385064581985874e+06
   4.4076475712400867e+05   5.6383979132964322e+06
   4.4084452302708960e+05   5.6382745861731004e+06
   4.4092396137372614e+05   5.6381519368870268e+06
   4.4100309024853900e+05   5.6380282071639663e+06
   4.4108381933649973e+05   5.6379070211105635e+06
   4.4115432805220701e+05   5.6377746150533669e+06
   4.4122122073560493e+05   5.6376383326872345e+06
   4.4128796925812174e+05   5.6375025470385430e+06
   4.4135451735322742e+05   5.6373666244257642e+06
   4.4142063570050301e+05   5.6372303207840491e+06
   4.4148219734220434e+05   5.6370893904723721e+06
   4.4153070719098061e+05   5.6369353891762411e+06
   4.4156010774380818e+05   5.6367641004486093e+06
   4.4156587263585557e+05   5.6365661872971524e+06
   4.4156075259457401e+05   5.6363631072719172e+06
   4.4155717139506812e+05   5.6362048896163311e+06
   4.4156160037094186e+05   5.6360264569894010e+06
   4.4157708228978497e+05   5.6358356001817640e+06
   4.4160333687654877e+05   5.6356596868868163e+06
   4.4163977462783444e+05   5.6354930254051732e+06
   4.4168500837969751e+05   5.6353362264220826e+06
   4.4173782595676009e+05   5.6351871065896135e+06
   4.4179638617011328e+05   5.6350430035351506e+06
   4.4185181903354079e+05   5.6348954979045345e+06
   4.4191485880094592e+05   5.6347565875489283e+06
   4.4198538563489250e+05   5.6346241118190363e+06
   4.4205626729053928e+05   5.6344927111930465e+06
   4.4212773909570341e+05   5.6343618517830437e+06
   4.4219574183854496e+05   5.6342269696071716e+06
   4.4225740856816346e+05   5.6340860897635967e+06
   4.4230733717016276e+05   5.6339336955439802e+06
   4.4234346937402204e+05   5.6337675010691201e+06
   4.4236924757052731e+05   5.6335904878755147e+06
   4.4238849509734486e+05   5.6334076193557065e+06
   4.4241256569316570e+05   5.6332307963329544e+06
   4.4244763693598501e+05   5.6330631999597615e+06
   4.4249176326532895e+05   5.6329045129500022e+06
   4.4254254707878130e+05   5.6327528153874967e+06
   4.4260073700364906e+05   5.6326079885156704e+06
   4.4266720176979527e+05   5.6324725258294353e+06
   4.4274267073774466e+05   5.6323453263576785e+06
   4.4282871120866406e+05   5.6322285254865205e+06
   4.4292310534967243e+05   5.6321201631918941e+06
   4.4303649209325813e+05   5.6320304967821753e+06
   4.4317183560247620e+05   5.6319625129448464e+06
   4.4332747930470959e+05   5.6319148379169498e+06
   4.4352301280183787e+05   5.6319077809948232e+06
   4.4370017659613781e+05   5.6319359668835280e+06
   4.4386733168889472e+05   5.6319732635391420e+06
   4.4402224642613839e+05   5.6320215468607368e+06
   4.4415502673000796e+05   5.6320619983641803e+06
   4.4429906881200511e+05   5.6321186799883973e+06
   4.4444135876711161e+05   5.6321791970588248e+06
   4.4458222813737305e+05   5.6322416366027594e+06
   4.4472118731148372e+05   5.6323047333057830e+06
   4.4486172960322368e+05   5.6323684203126738e+06
   4.4500017239048908e+05   5.6324323108396148e+06
   4.4514034250450833e+05   5.6324962460350422e+06
   4.4528067459270183e+05   5.6325586579204658e+06
   4.4542472830030415e+05   5.6326178349358756e+06
   4.4557395941548602e+05   5.6326721527369060e+06
   4.4572804462873982e+05   5.6327209996697586e+06
   4.4588992667310365e+05   5.6327631240385910e+06
   4.4605731625185022e+05   5.6327989994873060e+06
   4.4623707445066236e+05   5.6328222261637114e+06
   4.4641874332043115e+05   5.6328194041588446e+06
   4.4657927966308338e+05   5.6328023126387931e+06
   4.4673794620700425e+05   5.6327892436688412e+06
   4.4692815828687610e+05   5.6327869851620682e+06
   4.4708895559533796e+05   5.6327901462812359e+06
   4.4723958586932439e+05   5.6328083957316009e+06
   4.4740817350887135e+05   5.6328450876838081e+06
   4.4756287528206618e+05   5.6328935045846850e+06
   4.4770379125328345e+05   5.6329556529695028e+06
   4.4783441080549173e+05   5.6330284875714099e+06
   4.4795451107738673e+05   5.6331113942678934e+06
   4.4806571317490522e+05   5.6332030488534439e+06
   4.4816829759396135e+05   5.6333035631643450e+06
   4.4826413180000673e+05   5.6334103177523129e+06
   4.4836050308672036e+05   5.6335168916251631e+06
   4.4846265888810315e+05   5.6336176094227489e+06
   4.4857998792044201e+05   5.6337033389961990e+06
   4.4870924033743073e+05   5.6337772226200970e+06
   4.4885600172237330e+05   5.6338338460521521e+06
   4.4901825778091466e+05   5.6338747762259981e+06
   4.4919565534810122e+05   5.6339013314618822e+06
   4.4939518674303795e+05   5.6339006978286020e+06
   4.4956774073664378e+05   5.6338708938577259e+06
   4.4972625549376220e+05   5.6338254713519961e+06
   4.4986784085896832e+05   5.6337640106100459e+06
   4.5000047190908843e+05   5.6336929933203524e+06
   4.5012105041954358e+05   5.6336108019274734e+06
   4.5024340682415274e+05   5.6335300936461063e+06
   4.5038244458855537e+05   5.6334656213644827e+06
   4.5055535784344614e+05   5.6334489542765971e+06
   4.5071441152073798e+05   5.6334921175597645e+06
   4.5084445022502914e+05   5.6335652003233172e+06
   4.5096065082717425e+05   5.6336520807199329e+06
   4.5106882089300168e+05   5.6337469666173784e+06
   4.5116993936691660e+05   5.6338484467789903e+06
   4.5126662463787611e+05   5.6339547752510067e+06
   4.5136007266003668e+05   5.6340641714137290e+06
   4.5145172685980482e+05   5.6341751919764373e+06
   4.5154444665451266e+05   5.6342852555857869e+06
   4.5164634149081557e+05   5.6343864464591937e+06
   4.5176983685387298e+05   5.6344656036714809e+06
   4.5192500465879962e+05   5.6345140915086018e+06
   4.5210998986974242e+05   5.6345247318841154e+06
   4.5226484449680877e+05   5.6345135952071007e+06
   4.5244818910484150e+05   5.6344888418326341e+06
   4.5259165228556067e+05   5.6344608036980182e+06
   4.5273711781049584e+05   5.6344321071993019e+06
   4.5288044798711257e+05   5.6343789187254962e+06
   4.5301983113627421e+05   5.6343193912337311e+06
   4.5315572124046908e+05   5.6342827933218647e+06
   4.5330675849439466e+05   5.6342285423932495e+06
   4.5345696437002631e+05   5.6341759885564735e+06
   4.5361120486899465e+05   5.6341269487228552e+06
   4.5376503291799303e+05   5.6340775417010449e+06
   4.5393135331706109e+05   5.6340392354529388e+06
   4.5410112956925581e+05   5.6340061647999166e+06
   4.5428149220962747e+05   5.6339825578440055e+06
   4.5447032517585234e+05   5.6339703769971030e+06
   4.5467521871671733e+05   5.6339682189880563e+06
   4.5486392028366833e+05   5.6339757465083376e+06
   4.5502346547541203e+05   5.6339871380024049e+06
   4.5518191831715120e+05   5.6340066666827872e+06
   4.5534100596132950e+05   5.6340111606339291e+06
   4.5551244643526420e+05   5.6339879679261185e+06
   4.5567075428117410e+05   5.6339422001379281e+06
   4.5581134525832039e+05   5.6338793850957574e+06
   4.5594019048116228e+05   5.6338050740973381e+06
   4.5605586743222206e+05   5.6337178813887406e+06
   4.5616706920740718e+05   5.6336264034094354e+06
   4.5628171997233119e+05   5.6335379362570103e+06
   4.5637357805941394e+05   5.6334269548308430e+06
   4.5642794583028584e+05   5.6332786503984304e+06
   4.5643006079764728e+05   5.6330882498503411e+06
   4.5639434814657207e+05   5.6329209450188316e+06
   4.5636872061609459e+05   5.6327454808221124e+06
   4.5637639902892977e+05   5.6325515937807281e+06
   4.5641604033491283e+05   5.6323889442543974e+06
   4.5647294681914459e+05   5.6322437936402755e+06
   4.5654901167185890e+05   5.6321169275234984e+06
   4.5663709217077959e+05   5.6320023495139787e+06
   4.5673738102436124e+05   5.6318994822513713e+06
   4.5684820204209420e+05   5.6318077273490187e+06
   4.5698713371644745e+05   5.6317431007573884e+06
   4.5714215071114682e+05   5.6316924148118142e+06
