515984.8506	9331765.013
516263.7286	9331788.253
516507.7468	9331765.013
516760.1234	9331627.799
516995.4267	9331484.411
517197.6405	9331318.963
517348.3817	9331182.928
517553.5393	9331009.719
517692.9783	9330823.8
517890.5168	9330591.402
518018.3359	9330405.483
518098.4109	9330315.247
518241.7989	9330160.83
518413.413	9330010.406
518576.0919	9329847.727
518715.5309	9329696.668
518808.4902	9329568.849
518959.5491	9329336.451
519087.3682	9329092.432
519168.7076	9328883.274
519203.5673	9328639.256
519186.6887	9328344.582
519180.3275	9328046.64
519145.4677	9327709.662
519105.8032	9327377.633
519110.608	9327117.047
519109.4798	9326895.996
519157.0877	9326652.25
519238.4271	9326443.092
519377.8661	9326315.273
519552.1648	9326245.553
519807.803	9326233.933
520063.4411	9326326.892
520260.9797	9326489.571
520388.7988	9326675.49
520516.6178	9326919.508
520605.8617	9327241.598
520667.6767	9327570.224
520737.3962	9327849.101
520818.7356	9328151.219
520969.7946	9328488.197
521186.7667	9328760.04
521462.5128	9329087.258
521736.709	9329324.831
521962.5323	9329462.273
522306.0849	9329580.469
522654.6824	9329673.428
522921.9404	9329719.908
523305.3977	9329743.148
523506.7102	9329712.283
523758.5744	9329615.329
523979.3528	9329452.65
524118.7918	9329324.831
524269.8507	9329173.772
524444.1494	9329011.093
524617.0476	9328888.721
524804.3668	9328743.835
525071.6249	9328662.496
525443.4622	9328604.396
525873.3991	9328523.057
526164.9021	9328465.911
526373.0555	9328395.238
526554.6232	9328311.493
526771.5434	9328190.165
527043.6129	9328083.543
527256.1691	9328011.78
527492.1598	9327929.125
527779.0653	9327895.581
528116.0429	9327907.201
528336.8213	9327953.681
528569.2196	9328081.5
528708.6586	9328232.559
528871.3374	9328406.857
528999.1565	9328674.116
529115.3556	9328987.853
529161.8353	9329324.831
529146.6361	9329510.069
529115.3556	9329661.808
529010.7764	9329917.447
528894.5772	9330126.605
528745.8852	9330333.631
528580.8395	9330533.302
528406.5408	9330765.7
528301.9615	9330963.239
528243.8619	9331172.397
528234.8358	9331348.376
528256.8955	9331466.028
528358.0024	9331660.888
528470.1391	9331835.527
528609.8504	9331980.754
528742.2085	9332081.861
528867.2134	9332116.788
529133.7679	9332149.878
529409.514	9332083.699
529558.4169	9332004.652
529676.0685	9331901.706
529802.9117	9331745.45
529905.5099	9331532.615
529997.7722	9331353.891
530091.4286	9331125.918
530209.1775	9330909.021
530323.8269	9330695.981
530451.646	9330568.162
530556.6176	9330499.078
530695.6642	9330475.202
530858.343	9330498.442
531044.2617	9330533.302
531241.8002	9330614.641
531416.099	9330754.08
531549.3034	9330892.476
531637.5421	9331046.894
531652.2486	9331238.078
531636.8774	9331404.796
531635.7038	9331649.858
531671.7371	9331857.972
531741.4566	9332078.751
531869.2757	9332357.629
532031.9545	9332706.226
532287.5927	9333112.923
532450.2715	9333345.322
532621.0363	9333603.979
532841.6332	9333874.21
533100.9868	9334147.096
533333.3851	9334437.594
533600.6432	9334762.951
533798.1818	9335041.829
533865.5702	9335238.234
533891.1411	9335436.907
533924.396	9335848.552
533937.6207	9336145.721
533937.6207	9336505.939
533949.2407	9336842.916
533914.3809	9337145.034
533858.217	9337370.67
533854.5404	9337550.824
533879.5212	9337818.989
533942.7791	9338065.55
534042.2	9338353.506
534111.9195	9338609.144
534146.7792	9338818.302
534181.639	9338969.361
534228.1186	9339236.619
534239.7386	9339445.778
534262.9784	9339713.036
534274.5983	9339910.574
534286.2182	9340142.973
534321.078	9340328.891
534367.5576	9340503.19
534407.8708	9340607.928
534425.6572	9340712.348
534417.0623	9340806.466
534396.6074	9340909.887
534387.6494	9341177.804
534382.1345	9341411.269
534369.2663	9341565.686
534344.3178	9341688.421
534323.3086	9341806.505
534280.4083	9341920.82
534220.3635	9342025.263
534135.1593	9342141.598
534093.5203	9342251.375
534077.0597	9342368.186
534054.9158	9342490.355
534059.6299	9342618.015
534121.0949	9342751.394
534210.6888	9342850.413
534417.0623	9343019.787
534569.6418	9343165.014
534751.6342	9343334.138
535005.3205	9343620.914
535130.3254	9343779.008
535227.4314	9343931.065
535401.7302	9344209.943
535542.1062	9344448.152
535696.524	9344766.179
535850.0501	9345104.677
535908.1497	9345441.654
535913.0065	9345836.731
535906.091	9346246.016
535861.9716	9346639.414
535790.2776	9347030.973
535692.2281	9347556.479
535622.5086	9347986.416
535587.6488	9348323.393
535564.409	9348753.33
535622.5086	9349206.507
535761.9476	9349589.964
535924.6264	9349903.702
536110.545	9350136.1
536435.9027	9350391.738
536703.1607	9350542.797
536937.3812	9350678.174
537272.5366	9350786.816
537621.1341	9350821.675
537880.4327	9350823.401
538225.3697	9350763.576
538539.1075	9350705.476
538864.4651	9350682.236
539247.9223	9350658.996
539538.4202	9350658.996
539910.2575	9350693.856
540258.855	9350740.336
540540.463	9350760.898
540828.2309	9350821.675
541294.1688	9350917.154
541540.502	9350985.172
541769.4441	9351065.694
542134.2752	9351202.092
542443.3992	9351367.811
542597.5285	9351492.544
542710.6573	9351611.83
542816.2871	9351757.261
542911.879	9351906.163
543001.1552	9352146.346
543040.5605	9352435.596
543047.6348	9352692.482
543024.395	9353006.22
542931.4357	9353285.097
542826.8564	9353540.736
542757.137	9353796.374
542735.4015	9353954.037
542745.517	9354098.492
542794.2274	9354341.92
542884.3044	9354665.462
542972.5431	9354990.843
543051.5904	9355174.673
543128.9743	9355330.203
543314.8929	9355690.42
543535.6713	9356015.778
543709.9701	9356236.556
543919.1285	9356457.335
544163.1468	9356643.253
544360.6854	9356805.932
544650.9175	9357033.202
544888.0591	9357239.092
545143.5837	9357492.778
545348.3782	9357712.285
545632.5734	9357972.577
546045.5732	9358270.041
546399.1474	9358538.775
546627.0975	9358671.133
546835.7274	9358758.078
547300.5241	9358967.236
547776.9406	9359129.915
548241.7373	9359246.114
548660.0543	9359362.314
549078.3712	9359524.992
549448.8988	9359728.16
549752.3264	9359931.689
550031.2043	9360129.228
550263.6027	9360350.006
550554.1006	9360663.744
550687.9177	9360798.054
550774.879	9360942.622
550868.0718	9361121.596
550914.3179	9361291.22
550984.0374	9361651.437
550995.6574	9362023.274
550972.4175	9362395.112
550937.5578	9362859.908
550867.8383	9363266.605
550763.259	9363696.542
550635.44	9364021.9
550472.7611	9364486.696
550356.562	9365160.652
550298.4624	9365741.647
550294.52	9366048.259
550321.7022	9366252.924
550414.6616	9366752.58
550544.5297	9367213.746
550693.5395	9367554.354
550902.698	9367914.572
551146.7163	9368193.45
551518.5536	9368460.708
551785.8116	9368542.047
552064.6896	9368553.667
552436.5269	9368472.328
552680.5452	9368321.269
552878.0837	9368158.59
553029.1426	9367937.812
553168.5816	9367693.793
553284.7808	9367507.875
553412.5999	9367287.096
553528.799	9367066.318
553679.8579	9366857.159
553877.3965	9366613.141
554098.1749	9366345.883
554330.5732	9366090.245
554551.3516	9365892.706
554783.75	9365695.168
555051.008	9365520.869
555353.1258	9365381.43
555597.1441	9365253.611
555922.5017	9365149.032
556173.4258	9365125.429
556480.2577	9365160.652
556712.656	9365253.611
557038.0137	9365393.05
557456.3306	9365590.588
557746.8285	9365741.647
558107.0459	9365950.806
558409.1637	9366101.865
558722.9015	9366194.824
558990.1595	9366241.304
559245.7977	9366252.924
559501.4358	9366194.824
559625.7664	9366118.115
559725.035	9366026.2
559757.074	9365904.326
559803.5536	9365706.788
559838.4134	9365486.009
559883.1294	9365261.464
559919.7528	9364986.353
559942.9926	9364719.095
559942.9926	9364556.416
559966.2325	9364277.538
560001.0922	9364068.379
560035.952	9363824.361
560055.9302	9363695.226
560074.3133	9363555.515
560175.391	9363336.325
560261.8206	9363209.913
560372.9295	9363138.786
560640.1876	9363010.967
560919.0656	9362964.487
561279.283	9362952.868
561467.75	9362948.874
561651.1203	9362976.107
561976.4779	9363115.546
562208.8762	9363220.126
562569.0936	9363394.424
562839.1271	9363555.515
562997.2215	9363625.371
563162.6691	9363658.46
563401.649	9363651.107
563556.7865	9363580.343
563789.1848	9363440.904
563951.8636	9363313.085
564242.3615	9363080.687
564509.6196	9362836.668
564725.2301	9362658.421
565044.1357	9362348.632
565253.2942	9362162.713
565485.6925	9361930.315
565736.2989	9361698.825
566055.0684	9361372.559
566287.4667	9361082.061
566471.6217	9360875.263
566740.6435	9360524.305
567042.7613	9360198.947
567286.7795	9359943.309
567554.0376	9359745.771
567831.9689	9359522.269
568004.7698	9359397.264
568193.133	9359315.834
568541.7304	9359246.114
568832.2283	9359234.494
568990.1023	9359253.877
569111.1063	9359304.214
569389.9843	9359524.992
569587.5229	9359722.531
569773.2211	9359952.433
569953.3752	9360173.03
570098.7992	9360326.767
570296.3377	9360535.925
570528.7361	9360803.183
570754.8771	9361018.651
570927.6779	9361224.542
571063.2522	9361477.138
571156.2115	9361744.396
571159.3046	9361945.158
571144.5916	9362092.994
571132.9717	9362348.632
571098.1119	9362627.51
571040.0124	9362859.908
570958.673	9363103.926
570821.0561	9363408.45
570656.5551	9363650.063
570460.7479	9363959.942
570261.478	9364265.918
570087.1793	9364556.416
569901.9026	9364812.917
569692.1021	9365102.552
569506.1835	9365381.43
569320.2648	9365637.068
569134.3462	9365939.186
568948.4275	9366299.403
568703.3264	9366783.582
568553.3504	9367170.897
568437.1512	9367519.495
568320.952	9367914.572
568193.133	9368367.748
568158.2732	9368948.744
568227.9927	9369285.722
568332.572	9369529.74
568530.1105	9369680.799
568739.269	9369785.378
569004.8088	9369820.465
569284.2315	9369783.699
569494.5635	9369715.659
569715.3419	9369611.079
569947.7403	9369483.26
570249.8581	9369343.821
570575.2157	9369192.762
570900.5734	9369030.084
571129.8917	9368893.959
571481.5692	9368739.586
571760.4472	9368576.907
572074.1849	9368379.368
572294.9633	9368239.929
572527.3616	9368042.391
572806.2396	9367833.232
573015.3981	9367647.314
573282.6561	9367403.295
573491.8146	9367159.277
573689.3532	9366903.639
573898.5117	9366578.281
574061.1905	9366299.403
574177.3897	9365927.566
574235.4893	9365590.588
574270.349	9365276.851
574270.349	9364893.394
574212.2494	9364544.796
574130.91	9364242.678
574026.3308	9363998.66
573944.9914	9363766.262
573791.7603	9363437.863
573629.9892	9363136.381
573526.6744	9362918.008
573398.8553	9362592.65
573277.0343	9362231.934
573154.8371	9361965.175
573003.7782	9361651.437
572910.8188	9361407.419
572829.4794	9361128.541
572771.3798	9360872.903
572701.6603	9360594.025
572701.6603	9360396.486
572690.0404	9360059.508
572736.5201	9359780.631
572794.6197	9359559.852
572910.8188	9359339.074
573015.3981	9359188.015
573224.5566	9359013.716
573456.9549	9358874.277
573840.4121	9358746.458
574130.91	9358699.978
574398.1681	9358676.738
574665.4261	9358688.358
574909.4444	9358734.838
575083.7431	9358792.938
575281.2817	9358897.517
575497.7092	9359040.633
575618.2592	9359199.635
575711.2186	9359373.933
575827.4177	9359524.992
575978.4766	9359676.051
576210.875	9359873.59
576478.133	9360059.508
576919.6898	9360315.147
577221.8077	9360489.445
577477.4458	9360663.744
577767.9437	9360861.283
578058.4416	9361093.681
578244.3603	9361291.22
578395.4192	9361511.998
578581.3378	9361895.455
578662.6772	9362220.813
578767.2565	9362685.609
578790.4963	9363115.546
578802.1162	9363510.624
578732.3967	9363905.701
578639.4374	9364289.158
578476.7586	9364719.095
578279.22	9365253.611
578139.781	9365648.688
578023.5819	9366090.245
577953.8624	9366508.562
577953.8624	9366938.499
577953.8624	9367310.336
578023.5819	9367658.934
578163.0208	9368019.151
578302.4598	9368298.029
578441.8988	9368542.047
578685.9171	9368855.785
578941.5552	9369146.283
579208.8133	9369378.681
579534.1709	9369645.939
579906.0082	9369820.238
580254.6057	9369936.437
580661.3028	9370052.636
580963.4206	9370157.215
581370.1176	9370261.795
581730.335	9370354.754
582055.6927	9370494.193
582276.4711	9370598.772
582508.8694	9370761.451
582601.8287	9370970.61
582659.9283	9371226.248
582601.8287	9371493.506
582497.2495	9371784.004
582276.4711	9371993.162
582078.9325	9372144.221
581881.3939	9372248.8
581625.7558	9372364.999
581300.3981	9372446.339
580916.9409	9372446.339
580533.4837	9372457.959
580161.6464	9372469.579
579754.9493	9372446.339
579336.6324	9372411.479
579011.2747	9372434.719
578569.7179	9372492.819
578093.3013	9372574.158
577709.8441	9372771.697
577582.025	9372922.755
577489.0657	9373178.394
577477.4458	9373550.231
577523.9255	9373933.688
577628.5047	9374270.666
577802.8034	9374630.883
578046.8217	9375037.58
578290.8399	9375269.978
578558.098	9375479.137
578941.5552	9375583.716
579255.2929	9375606.956
579557.4108	9375583.716
579813.0489	9375502.377
580045.4472	9375409.417
580266.2256	9375293.218
580475.3841	9375200.259
580731.0223	9375095.68
581114.4795	9375060.82
581453.8239	9375026.551
581762.6595	9374960.372
582012.6692	9374930.959
582311.3308	9374816.802
582532.1092	9374712.223
582822.6071	9374526.304
583043.3855	9374398.485
583310.6436	9374200.946
583636.0013	9373991.788
583972.9788	9373805.869
584449.3954	9373561.851
584890.9522	9373294.593
585159.8508	9373122.065
585553.2874	9372876.276
585799.5817	9372717.637
586064.2979	9372548.513
586389.9213	9372399.859
586680.4192	9372318.52
586936.0574	9372248.8
587145.2159	9372213.941
587435.7138	9372213.941
587749.4515	9372237.18
587935.3702	9372295.28
588132.9087	9372399.859
588249.1079	9372550.918
588307.2075	9372736.837
588260.7278	9372922.755
588109.6689	9373108.674
587970.2299	9373224.873
587842.4108	9373352.692
587726.2117	9373515.371
587610.0125	9373701.29
587482.1934	9373945.308
587331.1345	9374235.806
587214.9354	9374526.304
587121.976	9374828.422
586982.537	9375107.3
586887.8594	9375401.565
586796.6184	9375630.196
586715.279	9375874.214
586637.8497	9376225.127
586587.4599	9376548.169
586529.3603	9376920.007
586506.1205	9377315.084
586459.6408	9377628.821
586436.401	9377965.799
586413.1612	9378256.297
586401.5412	9378616.514
586448.0209	9378988.352
586529.3603	9379325.329
586645.5595	9379615.827
586773.3786	9379894.705
586959.2972	9380127.103
587145.2159	9380324.642
587424.0939	9380498.941
587726.2117	9380568.66
587981.8498	9380615.14
588299.6792	9380615.004
588564.3954	9380585.591
588957.9228	9380464.081
589155.4613	9380382.741
589352.9999	9380254.922
589538.9186	9380115.483
589736.4571	9379917.945
589933.9957	9379720.406
590108.2944	9379522.868
590340.6928	9379325.329
590514.9915	9379209.13
590724.15	9379092.931
590991.408	9378976.732
591258.6661	9378872.152
591514.3043	9378814.053
591804.8022	9378802.433
592025.5806	9378802.433
592385.798	9378883.772
592722.7755	9378976.732
592978.4137	9379069.691
593222.4319	9379185.89
593478.0701	9379302.089
593687.2285	9379429.908
593919.6269	9379534.488
594244.9845	9379708.786
594605.2019	9379941.185
594872.46	9380196.823
595128.0981	9380510.561
595383.7363	9380847.538
595604.5147	9381161.276
595767.1935	9381463.394
595941.4922	9381788.751
596104.1711	9382160.589
596220.3702	9382416.227
596266.8499	9382729.965
596231.9901	9382997.223
596080.9312	9383206.381
595964.7321	9383369.06
595871.7727	9383438.779
595790.4333	9383520.119
595616.1346	9383566.598
595476.6956	9383578.218
595325.6367	9383554.979
595093.2384	9383543.359
594849.2201	9383543.359
594581.9621	9383624.698
594279.8443	9383740.897
593931.2468	9383880.336
593687.2285	9384031.395
593350.251	9384159.214
593036.5133	9384275.413
592734.3954	9384368.373
592374.178	9384472.952
592037.2005	9384531.051
591665.3632	9384612.391
591212.1865	9384740.21
590828.7292	9384844.789
590538.2313	9384984.228
590305.833	9385193.387
590178.0139	9385390.925
590061.8148	9385681.423
589899.1359	9386030.021
589759.697	9386332.138
589655.1177	9386622.636
589527.2986	9386889.894
589457.5791	9387110.673
589329.7601	9387412.791
589236.8007	9387668.429
589155.4613	9387947.307
589097.3617	9388237.805
589074.1219	9388551.542
589097.3617	9388946.62
589201.941	9389364.937
589399.4796	9389713.534
589678.3575	9389969.172
590003.7152	9390131.851
590352.3127	9390213.19
590735.7699	9390189.951
591084.3674	9390085.371
591363.2454	9389957.552
591549.164	9389876.213
591781.5623	9389760.014
592048.8204	9389701.914
592409.0378	9389678.674
592780.8751	9389736.774
593199.1921	9389864.593
593571.9437	9390012.43
593829.3067	9390174.201
594064.61	9390328.618
594277.8536	9390556.568
594424.9182	9390784.518
594512.2426	9391038.204
594547.1023	9391340.322
594513.1569	9391622.786
594454.143	9391909.698
594372.8036	9392211.816
594244.9845	9392560.413
594128.7854	9392850.911
594000.9663	9393118.169
593861.5273	9393420.287
593733.7082	9393629.446
593571.0294	9393838.604
593431.5904	9394001.283
593222.4319	9394187.202
593059.7531	9394361.5
592862.2145	9394524.179
592664.6759	9394640.378
592432.2776	9394756.578
592199.8793	9394837.917
591967.481	9394942.496
591676.9831	9395081.935
591386.4852	9395221.374
591130.847	9395360.813
590898.4487	9395488.632
590468.5118	9395709.411
590026.955	9395941.809
589689.9775	9396092.868
589422.7194	9396243.927
589271.6605	9396348.506
589085.7418	9396511.185
588957.9228	9396615.764
588830.1037	9396813.303
588783.624	9397022.461
588841.7236	9397208.38
588899.8232	9397371.059
589016.0223	9397522.118
589190.3211	9397673.176
589480.819	9397893.955
589910.7559	9398161.213
590468.5118	9398533.05
591095.9873	9398986.227
591607.2636	9399323.204
592048.8204	9399590.463
592699.5357	9399973.92
593210.812	9400299.277
593733.7082	9400659.495
594117.1654	9400891.893
594396.0434	9401112.672
594593.582	9401321.83
594767.8807	9401600.708
594791.1206	9401844.726
594767.8807	9402100.364
594605.2019	9402286.283
594489.0027	9402414.102
594268.2243	9402437.342
594047.4459	9402448.962
593861.5273	9402379.242
593710.4684	9402251.423
593582.6493	9402123.604
593408.3506	9401949.305
593222.4319	9401775.007
593024.8933	9401612.328
592757.6353	9401356.69
592409.0378	9401170.771
592002.3407	9401019.712
591560.7839	9400938.373
591165.7068	9400973.233
590921.6886	9401112.672
590759.0097	9401275.35
590666.0504	9401507.749
590619.5707	9401740.147
590573.0911	9401949.305
590433.6521	9402297.903
590294.2131	9402634.881
590108.2944	9402936.998
589945.6156	9403227.496
589771.3169	9403506.374
589608.6381	9403808.492
589387.8596	9404180.329
589260.0406	9404424.348
589155.4613	9404703.226
589097.3617	9404970.484
589085.7418	9405156.402
589120.6016	9405330.701
589271.6605	9405388.801
589457.5791	9405423.66
589620.258	9405423.66
589864.2762	9405423.66
590061.8148	9405446.9
590294.2131	9405505
590724.15	9405632.819
591223.8064	9405830.357
591630.5034	9405969.796
591990.7208	9406120.855
592327.6984	9406260.294
592699.5357	9406376.493
593164.3323	9406481.073
593501.3099	9406527.552
593919.6269	9406574.032
594361.1837	9406550.792
594733.021	9406527.552
595046.7587	9406481.073
595406.9761	9406411.353
595697.474	9406295.154
595964.7321	9406178.955
596173.8906	9406016.276
596406.2889	9405865.217
596638.6872	9405679.299
596859.4656	9405563.099
597091.8639	9405423.66
597242.9228	9405365.561
597382.3618	9405365.561
597556.6606	9405423.66
597730.9593	9405644.439
597847.1585	9405818.737
597963.3576	9406074.376
598021.4572	9406434.593
598114.4165	9406841.29
598184.136	9407201.507
598253.8555	9407492.005
598358.4348	9407887.083
598463.014	9408107.861
598590.8331	9408224.06
598834.8513	9408375.119
599044.0098	9408398.359
599346.1276	9408386.739
599659.8653	9408351.879
600054.9425	9408375.119
600333.8205	9408409.979
600785.4605	9408527.858
601286.6536	9408735.336
601739.8303	9408967.735
602181.3871	9409258.233
602588.0842	9409548.731
603157.46	9409943.808
603529.2974	9410269.165
603843.0351	9410594.523
604040.5737	9410838.541
604249.7321	9411129.039
604447.2707	9411431.157
604621.5695	9411791.374
604714.5288	9412139.972
604784.2483	9412442.09
604761.0084	9412837.167
604679.669	9413197.384
604551.85	9413429.782
604400.7911	9413545.982
604214.8724	9413592.461
603994.094	9413604.081
603761.6957	9413569.221
603506.0575	9413522.742
603331.7588	9413464.642
603134.2202	9413371.683
602971.5414	9413278.724
602832.1024	9413174.144
602611.324	9413069.565
602367.3058	9412906.886
602169.7672	9412779.067
601867.6494	9412604.768
601600.3913	9412500.189
601240.1739	9412465.329
600926.4362	9412442.09
600697.2217	9412520.661
600484.8794	9412651.248
600275.7209	9412860.407
600089.8022	9413116.045
599973.6031	9413348.443
599869.0238	9413685.421
599845.784	9414057.258
599834.1641	9414510.435
599857.4039	9414847.412
599903.8836	9415184.39
600043.3226	9415579.467
600194.3815	9415962.924
600426.7798	9416474.2
600612.6985	9416799.558
600903.1964	9417275.975
601211.9477	9417689.98
601417.8381	9417998.815
601756.0866	9418476.775
602013.4496	9418851.79
602239.4867	9419146.781
602576.4642	9419669.677
602785.6227	9419995.035
603006.4011	9420401.732
603192.3198	9420715.47
603320.1389	9421052.447
603354.9986	9421424.285
603308.519	9421761.262
603180.6999	9421993.66
603006.4011	9422260.919
602843.7223	9422446.837
602669.4236	9422632.756
602529.9846	9422760.575
602274.3464	9422900.014
602065.1879	9423004.593
601774.69	9423097.553
601460.9523	9423178.892
601170.4544	9423225.372
600856.7167	9423225.372
600601.0785	9423202.132
600345.4404	9423155.652
600035.4312	9423101.956
599776.0645	9423062.693
599543.6662	9423051.073
599253.1683	9423062.693
599067.2496	9423109.172
598881.331	9423190.512
598672.1725	9423283.471
598497.8737	9423457.77
598346.8148	9423632.069
598153.0048	9423903.458
598056.3169	9424143.345
597940.1178	9424457.083
597858.7784	9424782.44
597777.439	9425165.898
597707.7195	9425456.395
597638	9425874.712
597579.453	9426234.431
597533.4207	9426606.767
597475.3211	9427164.523
597454.4482	9427653.604
597486.9411	9428117.356
597568.2805	9428442.714
597696.0995	9428814.551
597893.6381	9429209.628
598067.9369	9429500.126
598288.7153	9429779.004
598567.5932	9429976.543
598916.1907	9430150.841
599264.7882	9430290.28
599578.5259	9430452.959
599836.894	9430594.895
600089.8022	9430731.837
600310.5806	9430789.937
